G75*
%MOIN*%
%OFA0B0*%
%FSLAX25Y25*%
%IPPOS*%
%LPD*%
%AMOC8*
5,1,8,0,0,1.08239X$1,22.5*
%
%ADD10C,0.00100*%
%ADD11C,0.00000*%
%ADD12C,0.03937*%
%ADD13R,0.06000X0.06000*%
%ADD14R,0.06300X0.04600*%
%ADD15R,0.00800X0.02500*%
%ADD16C,0.05437*%
%ADD17C,0.07400*%
%ADD18C,0.08600*%
%ADD19R,0.05000X0.02600*%
%ADD20C,0.00050*%
%ADD21C,0.01000*%
%ADD22C,0.02000*%
%ADD23C,0.02300*%
%ADD24C,0.01600*%
%ADD25C,0.01200*%
D10*
X0047595Y0017352D02*
X0047595Y0139352D01*
X0077595Y0139352D01*
X0077595Y0198352D01*
X0151095Y0198352D01*
X0151095Y0137852D01*
X0134595Y0137852D01*
X0134595Y0083852D01*
X0151095Y0083852D01*
X0151095Y0035852D01*
X0132595Y0017352D01*
X0047595Y0017352D01*
D11*
X0099937Y0042663D02*
X0099939Y0042734D01*
X0099945Y0042805D01*
X0099955Y0042876D01*
X0099969Y0042945D01*
X0099986Y0043014D01*
X0100008Y0043082D01*
X0100033Y0043149D01*
X0100062Y0043214D01*
X0100094Y0043277D01*
X0100130Y0043339D01*
X0100169Y0043398D01*
X0100212Y0043455D01*
X0100257Y0043510D01*
X0100306Y0043562D01*
X0100357Y0043611D01*
X0100411Y0043657D01*
X0100468Y0043701D01*
X0100526Y0043741D01*
X0100587Y0043777D01*
X0100650Y0043811D01*
X0100715Y0043840D01*
X0100781Y0043866D01*
X0100849Y0043889D01*
X0100917Y0043907D01*
X0100987Y0043922D01*
X0101057Y0043933D01*
X0101128Y0043940D01*
X0101199Y0043943D01*
X0101270Y0043942D01*
X0101341Y0043937D01*
X0101412Y0043928D01*
X0101482Y0043915D01*
X0101551Y0043899D01*
X0101619Y0043878D01*
X0101686Y0043854D01*
X0101752Y0043826D01*
X0101815Y0043794D01*
X0101877Y0043759D01*
X0101937Y0043721D01*
X0101995Y0043679D01*
X0102050Y0043635D01*
X0102103Y0043587D01*
X0102153Y0043536D01*
X0102200Y0043483D01*
X0102244Y0043427D01*
X0102285Y0043369D01*
X0102323Y0043308D01*
X0102357Y0043246D01*
X0102387Y0043181D01*
X0102414Y0043116D01*
X0102438Y0043048D01*
X0102457Y0042980D01*
X0102473Y0042911D01*
X0102485Y0042840D01*
X0102493Y0042770D01*
X0102497Y0042699D01*
X0102497Y0042627D01*
X0102493Y0042556D01*
X0102485Y0042486D01*
X0102473Y0042415D01*
X0102457Y0042346D01*
X0102438Y0042278D01*
X0102414Y0042210D01*
X0102387Y0042145D01*
X0102357Y0042080D01*
X0102323Y0042018D01*
X0102285Y0041957D01*
X0102244Y0041899D01*
X0102200Y0041843D01*
X0102153Y0041790D01*
X0102103Y0041739D01*
X0102050Y0041691D01*
X0101995Y0041647D01*
X0101937Y0041605D01*
X0101877Y0041567D01*
X0101815Y0041532D01*
X0101752Y0041500D01*
X0101686Y0041472D01*
X0101619Y0041448D01*
X0101551Y0041427D01*
X0101482Y0041411D01*
X0101412Y0041398D01*
X0101341Y0041389D01*
X0101270Y0041384D01*
X0101199Y0041383D01*
X0101128Y0041386D01*
X0101057Y0041393D01*
X0100987Y0041404D01*
X0100917Y0041419D01*
X0100849Y0041437D01*
X0100781Y0041460D01*
X0100715Y0041486D01*
X0100650Y0041515D01*
X0100587Y0041549D01*
X0100526Y0041585D01*
X0100468Y0041625D01*
X0100411Y0041669D01*
X0100357Y0041715D01*
X0100306Y0041764D01*
X0100257Y0041816D01*
X0100212Y0041871D01*
X0100169Y0041928D01*
X0100130Y0041987D01*
X0100094Y0042049D01*
X0100062Y0042112D01*
X0100033Y0042177D01*
X0100008Y0042244D01*
X0099986Y0042312D01*
X0099969Y0042381D01*
X0099955Y0042450D01*
X0099945Y0042521D01*
X0099939Y0042592D01*
X0099937Y0042663D01*
X0122693Y0042663D02*
X0122695Y0042734D01*
X0122701Y0042805D01*
X0122711Y0042876D01*
X0122725Y0042945D01*
X0122742Y0043014D01*
X0122764Y0043082D01*
X0122789Y0043149D01*
X0122818Y0043214D01*
X0122850Y0043277D01*
X0122886Y0043339D01*
X0122925Y0043398D01*
X0122968Y0043455D01*
X0123013Y0043510D01*
X0123062Y0043562D01*
X0123113Y0043611D01*
X0123167Y0043657D01*
X0123224Y0043701D01*
X0123282Y0043741D01*
X0123343Y0043777D01*
X0123406Y0043811D01*
X0123471Y0043840D01*
X0123537Y0043866D01*
X0123605Y0043889D01*
X0123673Y0043907D01*
X0123743Y0043922D01*
X0123813Y0043933D01*
X0123884Y0043940D01*
X0123955Y0043943D01*
X0124026Y0043942D01*
X0124097Y0043937D01*
X0124168Y0043928D01*
X0124238Y0043915D01*
X0124307Y0043899D01*
X0124375Y0043878D01*
X0124442Y0043854D01*
X0124508Y0043826D01*
X0124571Y0043794D01*
X0124633Y0043759D01*
X0124693Y0043721D01*
X0124751Y0043679D01*
X0124806Y0043635D01*
X0124859Y0043587D01*
X0124909Y0043536D01*
X0124956Y0043483D01*
X0125000Y0043427D01*
X0125041Y0043369D01*
X0125079Y0043308D01*
X0125113Y0043246D01*
X0125143Y0043181D01*
X0125170Y0043116D01*
X0125194Y0043048D01*
X0125213Y0042980D01*
X0125229Y0042911D01*
X0125241Y0042840D01*
X0125249Y0042770D01*
X0125253Y0042699D01*
X0125253Y0042627D01*
X0125249Y0042556D01*
X0125241Y0042486D01*
X0125229Y0042415D01*
X0125213Y0042346D01*
X0125194Y0042278D01*
X0125170Y0042210D01*
X0125143Y0042145D01*
X0125113Y0042080D01*
X0125079Y0042018D01*
X0125041Y0041957D01*
X0125000Y0041899D01*
X0124956Y0041843D01*
X0124909Y0041790D01*
X0124859Y0041739D01*
X0124806Y0041691D01*
X0124751Y0041647D01*
X0124693Y0041605D01*
X0124633Y0041567D01*
X0124571Y0041532D01*
X0124508Y0041500D01*
X0124442Y0041472D01*
X0124375Y0041448D01*
X0124307Y0041427D01*
X0124238Y0041411D01*
X0124168Y0041398D01*
X0124097Y0041389D01*
X0124026Y0041384D01*
X0123955Y0041383D01*
X0123884Y0041386D01*
X0123813Y0041393D01*
X0123743Y0041404D01*
X0123673Y0041419D01*
X0123605Y0041437D01*
X0123537Y0041460D01*
X0123471Y0041486D01*
X0123406Y0041515D01*
X0123343Y0041549D01*
X0123282Y0041585D01*
X0123224Y0041625D01*
X0123167Y0041669D01*
X0123113Y0041715D01*
X0123062Y0041764D01*
X0123013Y0041816D01*
X0122968Y0041871D01*
X0122925Y0041928D01*
X0122886Y0041987D01*
X0122850Y0042049D01*
X0122818Y0042112D01*
X0122789Y0042177D01*
X0122764Y0042244D01*
X0122742Y0042312D01*
X0122725Y0042381D01*
X0122711Y0042450D01*
X0122701Y0042521D01*
X0122695Y0042592D01*
X0122693Y0042663D01*
X0069737Y0078852D02*
X0069739Y0078926D01*
X0069745Y0078999D01*
X0069755Y0079072D01*
X0069769Y0079144D01*
X0069786Y0079215D01*
X0069808Y0079286D01*
X0069833Y0079355D01*
X0069863Y0079422D01*
X0069895Y0079488D01*
X0069931Y0079552D01*
X0069971Y0079614D01*
X0070014Y0079674D01*
X0070060Y0079731D01*
X0070109Y0079786D01*
X0070161Y0079838D01*
X0070216Y0079887D01*
X0070273Y0079933D01*
X0070333Y0079976D01*
X0070395Y0080016D01*
X0070459Y0080052D01*
X0070525Y0080084D01*
X0070592Y0080114D01*
X0070661Y0080139D01*
X0070732Y0080161D01*
X0070803Y0080178D01*
X0070875Y0080192D01*
X0070948Y0080202D01*
X0071021Y0080208D01*
X0071095Y0080210D01*
X0071169Y0080208D01*
X0071242Y0080202D01*
X0071315Y0080192D01*
X0071387Y0080178D01*
X0071458Y0080161D01*
X0071529Y0080139D01*
X0071598Y0080114D01*
X0071665Y0080084D01*
X0071731Y0080052D01*
X0071795Y0080016D01*
X0071857Y0079976D01*
X0071917Y0079933D01*
X0071974Y0079887D01*
X0072029Y0079838D01*
X0072081Y0079786D01*
X0072130Y0079731D01*
X0072176Y0079674D01*
X0072219Y0079614D01*
X0072259Y0079552D01*
X0072295Y0079488D01*
X0072327Y0079422D01*
X0072357Y0079355D01*
X0072382Y0079286D01*
X0072404Y0079215D01*
X0072421Y0079144D01*
X0072435Y0079072D01*
X0072445Y0078999D01*
X0072451Y0078926D01*
X0072453Y0078852D01*
X0072451Y0078778D01*
X0072445Y0078705D01*
X0072435Y0078632D01*
X0072421Y0078560D01*
X0072404Y0078489D01*
X0072382Y0078418D01*
X0072357Y0078349D01*
X0072327Y0078282D01*
X0072295Y0078216D01*
X0072259Y0078152D01*
X0072219Y0078090D01*
X0072176Y0078030D01*
X0072130Y0077973D01*
X0072081Y0077918D01*
X0072029Y0077866D01*
X0071974Y0077817D01*
X0071917Y0077771D01*
X0071857Y0077728D01*
X0071795Y0077688D01*
X0071731Y0077652D01*
X0071665Y0077620D01*
X0071598Y0077590D01*
X0071529Y0077565D01*
X0071458Y0077543D01*
X0071387Y0077526D01*
X0071315Y0077512D01*
X0071242Y0077502D01*
X0071169Y0077496D01*
X0071095Y0077494D01*
X0071021Y0077496D01*
X0070948Y0077502D01*
X0070875Y0077512D01*
X0070803Y0077526D01*
X0070732Y0077543D01*
X0070661Y0077565D01*
X0070592Y0077590D01*
X0070525Y0077620D01*
X0070459Y0077652D01*
X0070395Y0077688D01*
X0070333Y0077728D01*
X0070273Y0077771D01*
X0070216Y0077817D01*
X0070161Y0077866D01*
X0070109Y0077918D01*
X0070060Y0077973D01*
X0070014Y0078030D01*
X0069971Y0078090D01*
X0069931Y0078152D01*
X0069895Y0078216D01*
X0069863Y0078282D01*
X0069833Y0078349D01*
X0069808Y0078418D01*
X0069786Y0078489D01*
X0069769Y0078560D01*
X0069755Y0078632D01*
X0069745Y0078705D01*
X0069739Y0078778D01*
X0069737Y0078852D01*
X0057237Y0097352D02*
X0057239Y0097426D01*
X0057245Y0097499D01*
X0057255Y0097572D01*
X0057269Y0097644D01*
X0057286Y0097715D01*
X0057308Y0097786D01*
X0057333Y0097855D01*
X0057363Y0097922D01*
X0057395Y0097988D01*
X0057431Y0098052D01*
X0057471Y0098114D01*
X0057514Y0098174D01*
X0057560Y0098231D01*
X0057609Y0098286D01*
X0057661Y0098338D01*
X0057716Y0098387D01*
X0057773Y0098433D01*
X0057833Y0098476D01*
X0057895Y0098516D01*
X0057959Y0098552D01*
X0058025Y0098584D01*
X0058092Y0098614D01*
X0058161Y0098639D01*
X0058232Y0098661D01*
X0058303Y0098678D01*
X0058375Y0098692D01*
X0058448Y0098702D01*
X0058521Y0098708D01*
X0058595Y0098710D01*
X0058669Y0098708D01*
X0058742Y0098702D01*
X0058815Y0098692D01*
X0058887Y0098678D01*
X0058958Y0098661D01*
X0059029Y0098639D01*
X0059098Y0098614D01*
X0059165Y0098584D01*
X0059231Y0098552D01*
X0059295Y0098516D01*
X0059357Y0098476D01*
X0059417Y0098433D01*
X0059474Y0098387D01*
X0059529Y0098338D01*
X0059581Y0098286D01*
X0059630Y0098231D01*
X0059676Y0098174D01*
X0059719Y0098114D01*
X0059759Y0098052D01*
X0059795Y0097988D01*
X0059827Y0097922D01*
X0059857Y0097855D01*
X0059882Y0097786D01*
X0059904Y0097715D01*
X0059921Y0097644D01*
X0059935Y0097572D01*
X0059945Y0097499D01*
X0059951Y0097426D01*
X0059953Y0097352D01*
X0059951Y0097278D01*
X0059945Y0097205D01*
X0059935Y0097132D01*
X0059921Y0097060D01*
X0059904Y0096989D01*
X0059882Y0096918D01*
X0059857Y0096849D01*
X0059827Y0096782D01*
X0059795Y0096716D01*
X0059759Y0096652D01*
X0059719Y0096590D01*
X0059676Y0096530D01*
X0059630Y0096473D01*
X0059581Y0096418D01*
X0059529Y0096366D01*
X0059474Y0096317D01*
X0059417Y0096271D01*
X0059357Y0096228D01*
X0059295Y0096188D01*
X0059231Y0096152D01*
X0059165Y0096120D01*
X0059098Y0096090D01*
X0059029Y0096065D01*
X0058958Y0096043D01*
X0058887Y0096026D01*
X0058815Y0096012D01*
X0058742Y0096002D01*
X0058669Y0095996D01*
X0058595Y0095994D01*
X0058521Y0095996D01*
X0058448Y0096002D01*
X0058375Y0096012D01*
X0058303Y0096026D01*
X0058232Y0096043D01*
X0058161Y0096065D01*
X0058092Y0096090D01*
X0058025Y0096120D01*
X0057959Y0096152D01*
X0057895Y0096188D01*
X0057833Y0096228D01*
X0057773Y0096271D01*
X0057716Y0096317D01*
X0057661Y0096366D01*
X0057609Y0096418D01*
X0057560Y0096473D01*
X0057514Y0096530D01*
X0057471Y0096590D01*
X0057431Y0096652D01*
X0057395Y0096716D01*
X0057363Y0096782D01*
X0057333Y0096849D01*
X0057308Y0096918D01*
X0057286Y0096989D01*
X0057269Y0097060D01*
X0057255Y0097132D01*
X0057245Y0097205D01*
X0057239Y0097278D01*
X0057237Y0097352D01*
D12*
X0095587Y0042584D02*
X0095587Y0042584D01*
X0095587Y0046916D01*
X0095587Y0046916D01*
X0095587Y0042584D01*
X0095587Y0046520D02*
X0095587Y0046520D01*
X0095587Y0027112D02*
X0095587Y0027112D01*
X0095587Y0029474D01*
X0095587Y0029474D01*
X0095587Y0027112D01*
X0129603Y0027112D02*
X0129603Y0027112D01*
X0129603Y0029474D01*
X0129603Y0029474D01*
X0129603Y0027112D01*
X0129603Y0042584D02*
X0129603Y0042584D01*
X0129603Y0046916D01*
X0129603Y0046916D01*
X0129603Y0042584D01*
X0129603Y0046520D02*
X0129603Y0046520D01*
D13*
X0105595Y0092352D03*
X0085095Y0120352D03*
X0062595Y0104852D03*
D14*
X0093595Y0147852D03*
X0093595Y0153852D03*
X0128095Y0062352D03*
X0128095Y0056352D03*
D15*
X0128095Y0059352D03*
X0093595Y0150852D03*
D16*
X0085595Y0077628D03*
X0085595Y0032352D03*
D17*
X0143095Y0037352D03*
X0143095Y0047352D03*
X0143095Y0057352D03*
X0143095Y0067352D03*
X0143095Y0077352D03*
X0139595Y0192852D03*
X0119095Y0192852D03*
X0099595Y0192852D03*
D18*
X0085595Y0064616D03*
X0085595Y0045089D03*
D19*
X0050345Y0050252D03*
X0050345Y0054352D03*
X0050345Y0058452D03*
D20*
X0050845Y0055102D02*
X0049845Y0055102D01*
X0049845Y0051577D01*
X0050845Y0051577D01*
X0050845Y0055102D01*
X0050845Y0055085D02*
X0049845Y0055085D01*
X0049845Y0055036D02*
X0050845Y0055036D01*
X0050845Y0054988D02*
X0049845Y0054988D01*
X0049845Y0054939D02*
X0050845Y0054939D01*
X0050845Y0054891D02*
X0049845Y0054891D01*
X0049845Y0054842D02*
X0050845Y0054842D01*
X0050845Y0054794D02*
X0049845Y0054794D01*
X0049845Y0054745D02*
X0050845Y0054745D01*
X0050845Y0054697D02*
X0049845Y0054697D01*
X0049845Y0054648D02*
X0050845Y0054648D01*
X0050845Y0054600D02*
X0049845Y0054600D01*
X0049845Y0054551D02*
X0050845Y0054551D01*
X0050845Y0054503D02*
X0049845Y0054503D01*
X0049845Y0054454D02*
X0050845Y0054454D01*
X0050845Y0054406D02*
X0049845Y0054406D01*
X0049845Y0054357D02*
X0050845Y0054357D01*
X0050845Y0054309D02*
X0049845Y0054309D01*
X0049845Y0054260D02*
X0050845Y0054260D01*
X0050845Y0054211D02*
X0049845Y0054211D01*
X0049845Y0054163D02*
X0050845Y0054163D01*
X0050845Y0054114D02*
X0049845Y0054114D01*
X0049845Y0054066D02*
X0050845Y0054066D01*
X0050845Y0054017D02*
X0049845Y0054017D01*
X0049845Y0053969D02*
X0050845Y0053969D01*
X0050845Y0053920D02*
X0049845Y0053920D01*
X0049845Y0053872D02*
X0050845Y0053872D01*
X0050845Y0053823D02*
X0049845Y0053823D01*
X0049845Y0053775D02*
X0050845Y0053775D01*
X0050845Y0053726D02*
X0049845Y0053726D01*
X0049845Y0053678D02*
X0050845Y0053678D01*
X0050845Y0053629D02*
X0049845Y0053629D01*
X0049845Y0053581D02*
X0050845Y0053581D01*
X0050845Y0053532D02*
X0049845Y0053532D01*
X0049845Y0053484D02*
X0050845Y0053484D01*
X0050845Y0053435D02*
X0049845Y0053435D01*
X0049845Y0053387D02*
X0050845Y0053387D01*
X0050845Y0053338D02*
X0049845Y0053338D01*
X0049845Y0053290D02*
X0050845Y0053290D01*
X0050845Y0053241D02*
X0049845Y0053241D01*
X0049845Y0053193D02*
X0050845Y0053193D01*
X0050845Y0053144D02*
X0049845Y0053144D01*
X0049845Y0053096D02*
X0050845Y0053096D01*
X0050845Y0053047D02*
X0049845Y0053047D01*
X0049845Y0052999D02*
X0050845Y0052999D01*
X0050845Y0052950D02*
X0049845Y0052950D01*
X0049845Y0052902D02*
X0050845Y0052902D01*
X0050845Y0052853D02*
X0049845Y0052853D01*
X0049845Y0052805D02*
X0050845Y0052805D01*
X0050845Y0052756D02*
X0049845Y0052756D01*
X0049845Y0052708D02*
X0050845Y0052708D01*
X0050845Y0052659D02*
X0049845Y0052659D01*
X0049845Y0052611D02*
X0050845Y0052611D01*
X0050845Y0052562D02*
X0049845Y0052562D01*
X0049845Y0052514D02*
X0050845Y0052514D01*
X0050845Y0052465D02*
X0049845Y0052465D01*
X0049845Y0052417D02*
X0050845Y0052417D01*
X0050845Y0052368D02*
X0049845Y0052368D01*
X0049845Y0052320D02*
X0050845Y0052320D01*
X0050845Y0052271D02*
X0049845Y0052271D01*
X0049845Y0052223D02*
X0050845Y0052223D01*
X0050845Y0052174D02*
X0049845Y0052174D01*
X0049845Y0052125D02*
X0050845Y0052125D01*
X0050845Y0052077D02*
X0049845Y0052077D01*
X0049845Y0052028D02*
X0050845Y0052028D01*
X0050845Y0051980D02*
X0049845Y0051980D01*
X0049845Y0051931D02*
X0050845Y0051931D01*
X0050845Y0051883D02*
X0049845Y0051883D01*
X0049845Y0051834D02*
X0050845Y0051834D01*
X0050845Y0051786D02*
X0049845Y0051786D01*
X0049845Y0051737D02*
X0050845Y0051737D01*
X0050845Y0051689D02*
X0049845Y0051689D01*
X0049845Y0051640D02*
X0050845Y0051640D01*
X0050845Y0051592D02*
X0049845Y0051592D01*
D21*
X0053934Y0052302D02*
X0054084Y0052452D01*
X0056882Y0052452D01*
X0062882Y0058452D01*
X0063995Y0059565D01*
X0063995Y0069788D01*
X0064172Y0069965D01*
X0064545Y0070865D01*
X0064545Y0071840D01*
X0064172Y0072740D01*
X0063483Y0073429D01*
X0062582Y0073802D01*
X0061608Y0073802D01*
X0060707Y0073429D01*
X0060018Y0072740D01*
X0059645Y0071840D01*
X0059645Y0070865D01*
X0060018Y0069965D01*
X0060195Y0069788D01*
X0060195Y0061139D01*
X0055308Y0056252D01*
X0054084Y0056252D01*
X0053934Y0056402D01*
X0054084Y0056552D01*
X0054482Y0056552D01*
X0057332Y0059402D01*
X0057582Y0059402D01*
X0058483Y0059775D01*
X0059172Y0060465D01*
X0059545Y0061365D01*
X0059545Y0062340D01*
X0059172Y0063240D01*
X0058483Y0063929D01*
X0057582Y0064302D01*
X0056608Y0064302D01*
X0055707Y0063929D01*
X0055018Y0063240D01*
X0054645Y0062340D01*
X0054645Y0062089D01*
X0053496Y0060940D01*
X0053384Y0061052D01*
X0049645Y0061052D01*
X0049645Y0137302D01*
X0078444Y0137302D01*
X0079645Y0138503D01*
X0079645Y0196302D01*
X0095974Y0196302D01*
X0095356Y0195685D01*
X0094595Y0193847D01*
X0094595Y0191858D01*
X0095356Y0190020D01*
X0096763Y0188614D01*
X0098601Y0187852D01*
X0100590Y0187852D01*
X0101622Y0188280D01*
X0128350Y0161552D01*
X0137430Y0161552D01*
X0137707Y0161275D01*
X0138608Y0160902D01*
X0139582Y0160902D01*
X0140483Y0161275D01*
X0141172Y0161965D01*
X0141545Y0162865D01*
X0141545Y0163840D01*
X0141172Y0164740D01*
X0140483Y0165429D01*
X0139582Y0165802D01*
X0138608Y0165802D01*
X0137707Y0165429D01*
X0137430Y0165152D01*
X0129841Y0165152D01*
X0104168Y0190826D01*
X0104595Y0191858D01*
X0104595Y0193847D01*
X0103834Y0195685D01*
X0103216Y0196302D01*
X0115474Y0196302D01*
X0114856Y0195685D01*
X0114095Y0193847D01*
X0114095Y0191858D01*
X0114856Y0190020D01*
X0116263Y0188614D01*
X0118101Y0187852D01*
X0120090Y0187852D01*
X0121927Y0188614D01*
X0123334Y0190020D01*
X0124095Y0191858D01*
X0124095Y0193847D01*
X0123334Y0195685D01*
X0122716Y0196302D01*
X0135974Y0196302D01*
X0135356Y0195685D01*
X0134595Y0193847D01*
X0134595Y0191858D01*
X0135356Y0190020D01*
X0136763Y0188614D01*
X0138601Y0187852D01*
X0140590Y0187852D01*
X0142427Y0188614D01*
X0143834Y0190020D01*
X0144595Y0191858D01*
X0144595Y0193847D01*
X0143834Y0195685D01*
X0143216Y0196302D01*
X0149045Y0196302D01*
X0149045Y0139902D01*
X0133746Y0139902D01*
X0132545Y0138702D01*
X0132545Y0138352D01*
X0129095Y0138352D01*
X0129095Y0138137D01*
X0128474Y0138137D01*
X0127712Y0137375D01*
X0127712Y0084330D01*
X0128474Y0083568D01*
X0129095Y0083568D01*
X0129095Y0083352D01*
X0132545Y0083352D01*
X0132545Y0083003D01*
X0133746Y0081802D01*
X0140773Y0081802D01*
X0140263Y0081591D01*
X0138856Y0080185D01*
X0138095Y0078347D01*
X0138095Y0076358D01*
X0138856Y0074520D01*
X0140263Y0073114D01*
X0142101Y0072352D01*
X0140263Y0071591D01*
X0138856Y0070185D01*
X0138696Y0069797D01*
X0124841Y0083652D01*
X0110260Y0083652D01*
X0109983Y0083929D01*
X0109082Y0084302D01*
X0108108Y0084302D01*
X0107207Y0083929D01*
X0106518Y0083240D01*
X0106145Y0082340D01*
X0106145Y0081365D01*
X0106518Y0080465D01*
X0107207Y0079775D01*
X0108108Y0079402D01*
X0109082Y0079402D01*
X0109983Y0079775D01*
X0110260Y0080052D01*
X0123350Y0080052D01*
X0136795Y0066607D01*
X0137850Y0065552D01*
X0138429Y0065552D01*
X0138856Y0064520D01*
X0140263Y0063114D01*
X0142101Y0062352D01*
X0140263Y0061591D01*
X0138856Y0060185D01*
X0138095Y0058347D01*
X0138095Y0056358D01*
X0138856Y0054520D01*
X0140263Y0053114D01*
X0142101Y0052352D01*
X0140263Y0051591D01*
X0139045Y0050373D01*
X0132545Y0056872D01*
X0132545Y0059191D01*
X0132384Y0059352D01*
X0132545Y0059514D01*
X0132545Y0065191D01*
X0131784Y0065952D01*
X0124407Y0065952D01*
X0123645Y0065191D01*
X0123645Y0064452D01*
X0123221Y0064452D01*
X0122728Y0064657D01*
X0121753Y0064657D01*
X0121260Y0064452D01*
X0121225Y0064452D01*
X0121201Y0064428D01*
X0120853Y0064284D01*
X0120164Y0063595D01*
X0120020Y0063247D01*
X0119995Y0063222D01*
X0119995Y0063187D01*
X0119791Y0062694D01*
X0119791Y0061719D01*
X0120164Y0060819D01*
X0120853Y0060130D01*
X0121753Y0059757D01*
X0115395Y0059757D01*
X0115395Y0058759D02*
X0123645Y0058759D01*
X0123645Y0059191D02*
X0123645Y0053514D01*
X0124407Y0052752D01*
X0130725Y0052752D01*
X0132125Y0051352D01*
X0115988Y0051352D01*
X0116045Y0051490D01*
X0116045Y0052465D01*
X0115672Y0053365D01*
X0115395Y0053642D01*
X0115395Y0067098D01*
X0100045Y0082448D01*
X0100045Y0082840D01*
X0099672Y0083740D01*
X0098983Y0084429D01*
X0098082Y0084802D01*
X0097108Y0084802D01*
X0096207Y0084429D01*
X0095518Y0083740D01*
X0095145Y0082840D01*
X0095145Y0081865D01*
X0095518Y0080965D01*
X0096207Y0080275D01*
X0097108Y0079902D01*
X0097500Y0079902D01*
X0098465Y0078937D01*
X0097582Y0079302D01*
X0096608Y0079302D01*
X0095707Y0078929D01*
X0095018Y0078240D01*
X0094645Y0077340D01*
X0094645Y0076365D01*
X0095018Y0075465D01*
X0095707Y0074775D01*
X0096608Y0074402D01*
X0097000Y0074402D01*
X0104795Y0066607D01*
X0104795Y0051352D01*
X0091095Y0051352D01*
X0091095Y0046444D01*
X0090343Y0048261D01*
X0088767Y0049836D01*
X0086709Y0050689D01*
X0084481Y0050689D01*
X0083409Y0050244D01*
X0078333Y0055320D01*
X0077195Y0056458D01*
X0073195Y0060458D01*
X0073195Y0070722D01*
X0071965Y0071952D01*
X0054695Y0089222D01*
X0054695Y0122483D01*
X0060965Y0128752D01*
X0080965Y0128752D01*
X0081638Y0129425D01*
X0082483Y0129775D01*
X0083172Y0130465D01*
X0083545Y0131365D01*
X0083545Y0132340D01*
X0083172Y0133240D01*
X0082483Y0133929D01*
X0081582Y0134302D01*
X0080608Y0134302D01*
X0079707Y0133929D01*
X0079018Y0133240D01*
X0078899Y0132952D01*
X0059225Y0132952D01*
X0050495Y0124222D01*
X0050495Y0087483D01*
X0068995Y0068983D01*
X0068995Y0058719D01*
X0074225Y0053489D01*
X0075363Y0052351D01*
X0080439Y0047275D01*
X0079995Y0046202D01*
X0079995Y0043975D01*
X0080848Y0041916D01*
X0082423Y0040341D01*
X0083495Y0039897D01*
X0083495Y0035832D01*
X0083319Y0035759D01*
X0082188Y0034629D01*
X0081577Y0033152D01*
X0081577Y0031553D01*
X0082188Y0030076D01*
X0083319Y0028946D01*
X0084796Y0028334D01*
X0086394Y0028334D01*
X0087871Y0028946D01*
X0089002Y0030076D01*
X0089614Y0031553D01*
X0089614Y0033152D01*
X0089002Y0034629D01*
X0087871Y0035759D01*
X0087695Y0035832D01*
X0087695Y0039897D01*
X0088767Y0040341D01*
X0090343Y0041916D01*
X0091095Y0043733D01*
X0091095Y0019402D01*
X0049645Y0019402D01*
X0049645Y0042463D01*
X0050207Y0041900D01*
X0051108Y0041527D01*
X0052082Y0041527D01*
X0052983Y0041900D01*
X0053672Y0042590D01*
X0054045Y0043490D01*
X0054045Y0044465D01*
X0053672Y0045365D01*
X0052983Y0046054D01*
X0052245Y0046360D01*
X0052245Y0047652D01*
X0053384Y0047652D01*
X0054145Y0048414D01*
X0054145Y0052091D01*
X0053934Y0052302D01*
X0054145Y0051769D02*
X0075945Y0051769D01*
X0076943Y0050770D02*
X0054145Y0050770D01*
X0054145Y0049772D02*
X0077942Y0049772D01*
X0078940Y0048773D02*
X0054145Y0048773D01*
X0053506Y0047775D02*
X0079939Y0047775D01*
X0080233Y0046776D02*
X0052245Y0046776D01*
X0053259Y0045778D02*
X0079995Y0045778D01*
X0079995Y0044779D02*
X0053915Y0044779D01*
X0054045Y0043781D02*
X0080075Y0043781D01*
X0080489Y0042782D02*
X0053752Y0042782D01*
X0052702Y0041784D02*
X0080980Y0041784D01*
X0081979Y0040785D02*
X0049645Y0040785D01*
X0049645Y0039787D02*
X0083495Y0039787D01*
X0083495Y0038788D02*
X0049645Y0038788D01*
X0049645Y0037790D02*
X0083495Y0037790D01*
X0083495Y0036791D02*
X0049645Y0036791D01*
X0049645Y0035793D02*
X0083400Y0035793D01*
X0082354Y0034794D02*
X0049645Y0034794D01*
X0049645Y0033796D02*
X0081843Y0033796D01*
X0081577Y0032797D02*
X0049645Y0032797D01*
X0049645Y0031799D02*
X0081577Y0031799D01*
X0081888Y0030800D02*
X0049645Y0030800D01*
X0049645Y0029802D02*
X0082463Y0029802D01*
X0083663Y0028803D02*
X0049645Y0028803D01*
X0049645Y0027805D02*
X0091095Y0027805D01*
X0091095Y0028803D02*
X0087528Y0028803D01*
X0088728Y0029802D02*
X0091095Y0029802D01*
X0091095Y0030800D02*
X0089302Y0030800D01*
X0089614Y0031799D02*
X0091095Y0031799D01*
X0091095Y0032797D02*
X0089614Y0032797D01*
X0089347Y0033796D02*
X0091095Y0033796D01*
X0091095Y0034794D02*
X0088836Y0034794D01*
X0087790Y0035793D02*
X0091095Y0035793D01*
X0091095Y0036791D02*
X0087695Y0036791D01*
X0087695Y0037790D02*
X0091095Y0037790D01*
X0091095Y0038788D02*
X0087695Y0038788D01*
X0087695Y0039787D02*
X0091095Y0039787D01*
X0091095Y0040785D02*
X0089212Y0040785D01*
X0090210Y0041784D02*
X0091095Y0041784D01*
X0091095Y0042782D02*
X0090701Y0042782D01*
X0093095Y0040172D02*
X0093376Y0039890D01*
X0093944Y0039511D01*
X0094576Y0039249D01*
X0095103Y0039145D01*
X0095103Y0044266D01*
X0096072Y0044266D01*
X0096072Y0045234D01*
X0099056Y0045234D01*
X0099056Y0047257D01*
X0098922Y0047927D01*
X0098661Y0048558D01*
X0098465Y0048852D01*
X0104795Y0048852D01*
X0104795Y0042357D01*
X0105645Y0041507D01*
X0105645Y0041115D01*
X0106018Y0040215D01*
X0106707Y0039525D01*
X0107608Y0039152D01*
X0108582Y0039152D01*
X0109483Y0039525D01*
X0110172Y0040215D01*
X0110545Y0041115D01*
X0110545Y0042090D01*
X0110172Y0042990D01*
X0109483Y0043679D01*
X0108582Y0044052D01*
X0108395Y0044052D01*
X0108395Y0048852D01*
X0126726Y0048852D01*
X0126529Y0048558D01*
X0126268Y0047927D01*
X0126135Y0047257D01*
X0126135Y0045234D01*
X0129119Y0045234D01*
X0129119Y0044266D01*
X0130087Y0044266D01*
X0130087Y0039145D01*
X0130615Y0039249D01*
X0131246Y0039511D01*
X0131814Y0039890D01*
X0132297Y0040374D01*
X0132677Y0040942D01*
X0132938Y0041573D01*
X0133072Y0042243D01*
X0133072Y0044266D01*
X0130087Y0044266D01*
X0130087Y0045234D01*
X0133072Y0045234D01*
X0133072Y0047257D01*
X0132938Y0047927D01*
X0132677Y0048558D01*
X0132480Y0048852D01*
X0134595Y0048852D01*
X0134595Y0022251D01*
X0131746Y0019402D01*
X0093095Y0019402D01*
X0093095Y0024699D01*
X0093376Y0024418D01*
X0093944Y0024038D01*
X0094576Y0023777D01*
X0095103Y0023672D01*
X0095103Y0027809D01*
X0096072Y0027809D01*
X0096072Y0028778D01*
X0099056Y0028778D01*
X0099056Y0029816D01*
X0098922Y0030486D01*
X0098661Y0031117D01*
X0098281Y0031685D01*
X0097798Y0032169D01*
X0097230Y0032548D01*
X0096599Y0032810D01*
X0096072Y0032915D01*
X0096072Y0028778D01*
X0095103Y0028778D01*
X0095103Y0032915D01*
X0094576Y0032810D01*
X0093944Y0032548D01*
X0093376Y0032169D01*
X0093095Y0031887D01*
X0093095Y0040172D01*
X0093095Y0039787D02*
X0093531Y0039787D01*
X0093095Y0038788D02*
X0134595Y0038788D01*
X0134595Y0037790D02*
X0093095Y0037790D01*
X0093095Y0036791D02*
X0134595Y0036791D01*
X0134595Y0035793D02*
X0093095Y0035793D01*
X0093095Y0034794D02*
X0134595Y0034794D01*
X0134595Y0033796D02*
X0093095Y0033796D01*
X0093095Y0032797D02*
X0094546Y0032797D01*
X0095103Y0032797D02*
X0096072Y0032797D01*
X0096629Y0032797D02*
X0128562Y0032797D01*
X0128591Y0032810D02*
X0127960Y0032548D01*
X0127392Y0032169D01*
X0126909Y0031685D01*
X0126529Y0031117D01*
X0126268Y0030486D01*
X0126135Y0029816D01*
X0126135Y0028778D01*
X0129119Y0028778D01*
X0129119Y0032915D01*
X0128591Y0032810D01*
X0129119Y0032797D02*
X0130087Y0032797D01*
X0130087Y0032915D02*
X0130615Y0032810D01*
X0131246Y0032548D01*
X0131814Y0032169D01*
X0132297Y0031685D01*
X0132677Y0031117D01*
X0132938Y0030486D01*
X0133072Y0029816D01*
X0133072Y0028778D01*
X0130087Y0028778D01*
X0129119Y0028778D01*
X0129119Y0027809D01*
X0130087Y0027809D01*
X0130087Y0023672D01*
X0130615Y0023777D01*
X0131246Y0024038D01*
X0131814Y0024418D01*
X0132297Y0024901D01*
X0132677Y0025469D01*
X0132938Y0026100D01*
X0133072Y0026771D01*
X0133072Y0027809D01*
X0130087Y0027809D01*
X0130087Y0028778D01*
X0130087Y0032915D01*
X0130645Y0032797D02*
X0134595Y0032797D01*
X0134595Y0031799D02*
X0132184Y0031799D01*
X0132808Y0030800D02*
X0134595Y0030800D01*
X0134595Y0029802D02*
X0133072Y0029802D01*
X0133072Y0028803D02*
X0134595Y0028803D01*
X0134595Y0027805D02*
X0133072Y0027805D01*
X0133072Y0026806D02*
X0134595Y0026806D01*
X0134595Y0025808D02*
X0132817Y0025808D01*
X0132205Y0024809D02*
X0134595Y0024809D01*
X0134595Y0023811D02*
X0130696Y0023811D01*
X0130087Y0023811D02*
X0129119Y0023811D01*
X0129119Y0023672D02*
X0129119Y0027809D01*
X0126135Y0027809D01*
X0126135Y0026771D01*
X0126268Y0026100D01*
X0126529Y0025469D01*
X0126909Y0024901D01*
X0127392Y0024418D01*
X0127960Y0024038D01*
X0128591Y0023777D01*
X0129119Y0023672D01*
X0128510Y0023811D02*
X0096680Y0023811D01*
X0096599Y0023777D02*
X0097230Y0024038D01*
X0097798Y0024418D01*
X0098281Y0024901D01*
X0098661Y0025469D01*
X0098922Y0026100D01*
X0099056Y0026771D01*
X0099056Y0027809D01*
X0096072Y0027809D01*
X0096072Y0023672D01*
X0096599Y0023777D01*
X0096072Y0023811D02*
X0095103Y0023811D01*
X0094494Y0023811D02*
X0093095Y0023811D01*
X0093095Y0022812D02*
X0134595Y0022812D01*
X0134157Y0021814D02*
X0093095Y0021814D01*
X0093095Y0020815D02*
X0133159Y0020815D01*
X0132160Y0019817D02*
X0093095Y0019817D01*
X0091095Y0019817D02*
X0049645Y0019817D01*
X0049645Y0020815D02*
X0091095Y0020815D01*
X0091095Y0021814D02*
X0049645Y0021814D01*
X0049645Y0022812D02*
X0091095Y0022812D01*
X0091095Y0023811D02*
X0049645Y0023811D01*
X0049645Y0024809D02*
X0091095Y0024809D01*
X0091095Y0025808D02*
X0049645Y0025808D01*
X0049645Y0026806D02*
X0091095Y0026806D01*
X0095103Y0026806D02*
X0096072Y0026806D01*
X0096072Y0025808D02*
X0095103Y0025808D01*
X0095103Y0024809D02*
X0096072Y0024809D01*
X0098189Y0024809D02*
X0127001Y0024809D01*
X0126389Y0025808D02*
X0098801Y0025808D01*
X0099056Y0026806D02*
X0126135Y0026806D01*
X0126135Y0027805D02*
X0099056Y0027805D01*
X0099056Y0028803D02*
X0126135Y0028803D01*
X0126135Y0029802D02*
X0099056Y0029802D01*
X0098792Y0030800D02*
X0126398Y0030800D01*
X0127022Y0031799D02*
X0098168Y0031799D01*
X0096072Y0031799D02*
X0095103Y0031799D01*
X0095103Y0030800D02*
X0096072Y0030800D01*
X0096072Y0029802D02*
X0095103Y0029802D01*
X0095103Y0028803D02*
X0096072Y0028803D01*
X0096072Y0027805D02*
X0095103Y0027805D01*
X0096072Y0039145D02*
X0096599Y0039249D01*
X0097230Y0039511D01*
X0097798Y0039890D01*
X0098281Y0040374D01*
X0098517Y0040726D01*
X0099359Y0039883D01*
X0100565Y0039384D01*
X0101870Y0039384D01*
X0103075Y0039883D01*
X0103997Y0040806D01*
X0104497Y0042011D01*
X0104497Y0043316D01*
X0103997Y0044521D01*
X0103075Y0045444D01*
X0101870Y0045943D01*
X0100565Y0045943D01*
X0099359Y0045444D01*
X0098437Y0044521D01*
X0098331Y0044266D01*
X0096072Y0044266D01*
X0096072Y0039145D01*
X0096072Y0039787D02*
X0095103Y0039787D01*
X0095103Y0040785D02*
X0096072Y0040785D01*
X0096072Y0041784D02*
X0095103Y0041784D01*
X0095103Y0042782D02*
X0096072Y0042782D01*
X0096072Y0043781D02*
X0095103Y0043781D01*
X0096072Y0044779D02*
X0098695Y0044779D01*
X0099056Y0045778D02*
X0100167Y0045778D01*
X0099056Y0046776D02*
X0104795Y0046776D01*
X0104795Y0045778D02*
X0102268Y0045778D01*
X0103739Y0044779D02*
X0104795Y0044779D01*
X0104795Y0043781D02*
X0104304Y0043781D01*
X0104497Y0042782D02*
X0104795Y0042782D01*
X0104403Y0041784D02*
X0105368Y0041784D01*
X0105782Y0040785D02*
X0103977Y0040785D01*
X0102842Y0039787D02*
X0106446Y0039787D01*
X0108095Y0041602D02*
X0106595Y0043102D01*
X0106595Y0067352D01*
X0097095Y0076852D01*
X0094807Y0077730D02*
X0094395Y0077730D01*
X0094395Y0076732D02*
X0094645Y0076732D01*
X0094395Y0075733D02*
X0094907Y0075733D01*
X0094395Y0074735D02*
X0095805Y0074735D01*
X0094395Y0073736D02*
X0097666Y0073736D01*
X0098664Y0072738D02*
X0094395Y0072738D01*
X0094395Y0071739D02*
X0099663Y0071739D01*
X0100661Y0070741D02*
X0094395Y0070741D01*
X0094395Y0070673D02*
X0094395Y0092607D01*
X0112395Y0110607D01*
X0112395Y0124598D01*
X0112045Y0124948D01*
X0112045Y0125340D01*
X0111672Y0126240D01*
X0110983Y0126929D01*
X0110082Y0127302D01*
X0109108Y0127302D01*
X0108207Y0126929D01*
X0107518Y0126240D01*
X0107145Y0125340D01*
X0107145Y0124365D01*
X0107518Y0123465D01*
X0108207Y0122775D01*
X0108795Y0122532D01*
X0108795Y0112098D01*
X0091850Y0095152D01*
X0091850Y0095152D01*
X0090795Y0094098D01*
X0090795Y0068607D01*
X0091145Y0068257D01*
X0091145Y0067865D01*
X0091518Y0066965D01*
X0092207Y0066275D01*
X0093108Y0065902D01*
X0094082Y0065902D01*
X0094983Y0066275D01*
X0095672Y0066965D01*
X0096045Y0067865D01*
X0096045Y0068840D01*
X0095672Y0069740D01*
X0094983Y0070429D01*
X0094395Y0070673D01*
X0095670Y0069742D02*
X0101660Y0069742D01*
X0102658Y0068744D02*
X0096045Y0068744D01*
X0095995Y0067745D02*
X0103657Y0067745D01*
X0104655Y0066747D02*
X0095454Y0066747D01*
X0093595Y0068352D02*
X0092595Y0069352D01*
X0092595Y0093352D01*
X0110595Y0111352D01*
X0110595Y0123852D01*
X0109595Y0124852D01*
X0107935Y0126657D02*
X0107446Y0126657D01*
X0107277Y0125659D02*
X0106447Y0125659D01*
X0107145Y0124660D02*
X0105449Y0124660D01*
X0104450Y0123662D02*
X0107436Y0123662D01*
X0108478Y0122663D02*
X0103895Y0122663D01*
X0103895Y0123107D02*
X0108191Y0127402D01*
X0108582Y0127402D01*
X0109483Y0127775D01*
X0110172Y0128465D01*
X0110545Y0129365D01*
X0110545Y0130340D01*
X0110172Y0131240D01*
X0109483Y0131929D01*
X0108582Y0132302D01*
X0107608Y0132302D01*
X0106707Y0131929D01*
X0106018Y0131240D01*
X0105645Y0130340D01*
X0105645Y0129948D01*
X0100295Y0124598D01*
X0100295Y0112098D01*
X0081350Y0093152D01*
X0071850Y0093152D01*
X0065795Y0087098D01*
X0065795Y0086017D01*
X0065518Y0085740D01*
X0065145Y0084840D01*
X0065145Y0083865D01*
X0065518Y0082965D01*
X0066207Y0082275D01*
X0067108Y0081902D01*
X0068082Y0081902D01*
X0068983Y0082275D01*
X0069672Y0082965D01*
X0070045Y0083865D01*
X0070045Y0084840D01*
X0069672Y0085740D01*
X0069600Y0085812D01*
X0073341Y0089552D01*
X0082841Y0089552D01*
X0102841Y0109552D01*
X0103895Y0110607D01*
X0103895Y0123107D01*
X0103895Y0121665D02*
X0108795Y0121665D01*
X0108795Y0120666D02*
X0103895Y0120666D01*
X0103895Y0119668D02*
X0108795Y0119668D01*
X0108795Y0118669D02*
X0103895Y0118669D01*
X0103895Y0117671D02*
X0108795Y0117671D01*
X0108795Y0116672D02*
X0103895Y0116672D01*
X0103895Y0115674D02*
X0108795Y0115674D01*
X0108795Y0114675D02*
X0103895Y0114675D01*
X0103895Y0113677D02*
X0108795Y0113677D01*
X0108795Y0112678D02*
X0103895Y0112678D01*
X0103895Y0111680D02*
X0108377Y0111680D01*
X0107378Y0110681D02*
X0103895Y0110681D01*
X0102971Y0109683D02*
X0106380Y0109683D01*
X0105381Y0108684D02*
X0101973Y0108684D01*
X0100974Y0107686D02*
X0104383Y0107686D01*
X0103384Y0106687D02*
X0099975Y0106687D01*
X0098977Y0105689D02*
X0102386Y0105689D01*
X0101387Y0104690D02*
X0097978Y0104690D01*
X0096980Y0103692D02*
X0100389Y0103692D01*
X0099390Y0102693D02*
X0095981Y0102693D01*
X0094983Y0101695D02*
X0098392Y0101695D01*
X0097393Y0100696D02*
X0093984Y0100696D01*
X0092986Y0099698D02*
X0096395Y0099698D01*
X0095396Y0098699D02*
X0091987Y0098699D01*
X0090989Y0097701D02*
X0094398Y0097701D01*
X0093399Y0096702D02*
X0089990Y0096702D01*
X0088992Y0095703D02*
X0092401Y0095703D01*
X0091402Y0094705D02*
X0087993Y0094705D01*
X0086995Y0093706D02*
X0090795Y0093706D01*
X0090795Y0092708D02*
X0085996Y0092708D01*
X0084998Y0091709D02*
X0090795Y0091709D01*
X0090795Y0090711D02*
X0083999Y0090711D01*
X0083001Y0089712D02*
X0090795Y0089712D01*
X0090795Y0088714D02*
X0072502Y0088714D01*
X0071504Y0087715D02*
X0090795Y0087715D01*
X0090795Y0086717D02*
X0070505Y0086717D01*
X0069681Y0085718D02*
X0090795Y0085718D01*
X0090795Y0084720D02*
X0070045Y0084720D01*
X0069986Y0083721D02*
X0090795Y0083721D01*
X0090795Y0082723D02*
X0069430Y0082723D01*
X0069253Y0081724D02*
X0062193Y0081724D01*
X0063192Y0080726D02*
X0068236Y0080726D01*
X0068248Y0080755D02*
X0067737Y0079520D01*
X0067737Y0078184D01*
X0068248Y0076950D01*
X0069193Y0076005D01*
X0070427Y0075494D01*
X0071763Y0075494D01*
X0072997Y0076005D01*
X0073942Y0076950D01*
X0074453Y0078184D01*
X0074453Y0079520D01*
X0073942Y0080755D01*
X0072997Y0081699D01*
X0071763Y0082211D01*
X0070427Y0082211D01*
X0069193Y0081699D01*
X0068248Y0080755D01*
X0067823Y0079727D02*
X0064190Y0079727D01*
X0065189Y0078729D02*
X0067737Y0078729D01*
X0067925Y0077730D02*
X0066187Y0077730D01*
X0067186Y0076732D02*
X0068466Y0076732D01*
X0068184Y0075733D02*
X0069850Y0075733D01*
X0069183Y0074735D02*
X0082522Y0074735D01*
X0082377Y0074880D02*
X0082847Y0074410D01*
X0083384Y0074020D01*
X0083976Y0073719D01*
X0084607Y0073513D01*
X0085259Y0073410D01*
X0085259Y0077291D01*
X0085932Y0077291D01*
X0085932Y0077965D01*
X0085259Y0077965D01*
X0085259Y0081846D01*
X0084607Y0081743D01*
X0083976Y0081537D01*
X0083384Y0081236D01*
X0082847Y0080846D01*
X0082377Y0080376D01*
X0081987Y0079839D01*
X0081686Y0079247D01*
X0081481Y0078616D01*
X0081377Y0077965D01*
X0085258Y0077965D01*
X0085258Y0077291D01*
X0081377Y0077291D01*
X0081481Y0076640D01*
X0081686Y0076009D01*
X0081987Y0075417D01*
X0082377Y0074880D01*
X0081826Y0075733D02*
X0072341Y0075733D01*
X0073724Y0076732D02*
X0081466Y0076732D01*
X0081517Y0078729D02*
X0074453Y0078729D01*
X0074368Y0079727D02*
X0081930Y0079727D01*
X0082727Y0080726D02*
X0073954Y0080726D01*
X0072937Y0081724D02*
X0084551Y0081724D01*
X0085259Y0081724D02*
X0085932Y0081724D01*
X0085932Y0081846D02*
X0086583Y0081743D01*
X0087214Y0081537D01*
X0087806Y0081236D01*
X0088343Y0080846D01*
X0088813Y0080376D01*
X0089203Y0079839D01*
X0089505Y0079247D01*
X0089710Y0078616D01*
X0089813Y0077965D01*
X0085932Y0077965D01*
X0085932Y0081846D01*
X0086639Y0081724D02*
X0090795Y0081724D01*
X0090795Y0080726D02*
X0088463Y0080726D01*
X0089260Y0079727D02*
X0090795Y0079727D01*
X0090795Y0078729D02*
X0089673Y0078729D01*
X0089813Y0077291D02*
X0085932Y0077291D01*
X0085932Y0073410D01*
X0086583Y0073513D01*
X0087214Y0073719D01*
X0087806Y0074020D01*
X0088343Y0074410D01*
X0088813Y0074880D01*
X0089203Y0075417D01*
X0089505Y0076009D01*
X0089710Y0076640D01*
X0089813Y0077291D01*
X0089724Y0076732D02*
X0090795Y0076732D01*
X0090795Y0077730D02*
X0085932Y0077730D01*
X0085258Y0077730D02*
X0074265Y0077730D01*
X0070181Y0073736D02*
X0083941Y0073736D01*
X0085259Y0073736D02*
X0085932Y0073736D01*
X0085932Y0074735D02*
X0085259Y0074735D01*
X0085259Y0075733D02*
X0085932Y0075733D01*
X0085932Y0076732D02*
X0085259Y0076732D01*
X0085259Y0078729D02*
X0085932Y0078729D01*
X0085932Y0079727D02*
X0085259Y0079727D01*
X0085259Y0080726D02*
X0085932Y0080726D01*
X0089364Y0075733D02*
X0090795Y0075733D01*
X0090795Y0074735D02*
X0088668Y0074735D01*
X0087249Y0073736D02*
X0090795Y0073736D01*
X0090795Y0072738D02*
X0071180Y0072738D01*
X0072178Y0071739D02*
X0090795Y0071739D01*
X0090795Y0070741D02*
X0073177Y0070741D01*
X0073195Y0069742D02*
X0082880Y0069742D01*
X0082555Y0069577D02*
X0081817Y0069040D01*
X0081171Y0068395D01*
X0080635Y0067656D01*
X0080220Y0066843D01*
X0079938Y0065974D01*
X0079802Y0065116D01*
X0085095Y0065116D01*
X0085095Y0064116D01*
X0079802Y0064116D01*
X0079938Y0063258D01*
X0080220Y0062390D01*
X0080635Y0061576D01*
X0081171Y0060838D01*
X0081817Y0060192D01*
X0082555Y0059656D01*
X0083369Y0059241D01*
X0084237Y0058959D01*
X0085095Y0058823D01*
X0085095Y0064116D01*
X0086095Y0064116D01*
X0086095Y0058823D01*
X0086953Y0058959D01*
X0087822Y0059241D01*
X0088635Y0059656D01*
X0089374Y0060192D01*
X0090019Y0060838D01*
X0090556Y0061576D01*
X0090970Y0062390D01*
X0091252Y0063258D01*
X0091388Y0064116D01*
X0086095Y0064116D01*
X0086095Y0065116D01*
X0085095Y0065116D01*
X0085095Y0070409D01*
X0084237Y0070273D01*
X0083369Y0069991D01*
X0082555Y0069577D01*
X0081520Y0068744D02*
X0073195Y0068744D01*
X0073195Y0067745D02*
X0080699Y0067745D01*
X0080189Y0066747D02*
X0073195Y0066747D01*
X0073195Y0065748D02*
X0079902Y0065748D01*
X0079860Y0063751D02*
X0073195Y0063751D01*
X0073195Y0062753D02*
X0080102Y0062753D01*
X0080544Y0061754D02*
X0073195Y0061754D01*
X0073195Y0060756D02*
X0081253Y0060756D01*
X0082415Y0059757D02*
X0073896Y0059757D01*
X0074895Y0058759D02*
X0104795Y0058759D01*
X0104795Y0059757D02*
X0088775Y0059757D01*
X0089937Y0060756D02*
X0104795Y0060756D01*
X0104795Y0061754D02*
X0090646Y0061754D01*
X0091088Y0062753D02*
X0104795Y0062753D01*
X0104795Y0063751D02*
X0091330Y0063751D01*
X0091388Y0065116D02*
X0091252Y0065974D01*
X0090970Y0066843D01*
X0090556Y0067656D01*
X0090019Y0068395D01*
X0089374Y0069040D01*
X0088635Y0069577D01*
X0087822Y0069991D01*
X0086953Y0070273D01*
X0086095Y0070409D01*
X0086095Y0065116D01*
X0091388Y0065116D01*
X0091288Y0065748D02*
X0104795Y0065748D01*
X0104795Y0064750D02*
X0086095Y0064750D01*
X0086095Y0065748D02*
X0085095Y0065748D01*
X0085095Y0064750D02*
X0073195Y0064750D01*
X0068995Y0064750D02*
X0063995Y0064750D01*
X0063995Y0065748D02*
X0068995Y0065748D01*
X0068995Y0066747D02*
X0063995Y0066747D01*
X0063995Y0067745D02*
X0068995Y0067745D01*
X0068995Y0068744D02*
X0063995Y0068744D01*
X0063995Y0069742D02*
X0068235Y0069742D01*
X0067237Y0070741D02*
X0064494Y0070741D01*
X0064545Y0071739D02*
X0066238Y0071739D01*
X0065240Y0072738D02*
X0064173Y0072738D01*
X0064241Y0073736D02*
X0062742Y0073736D01*
X0063243Y0074735D02*
X0049645Y0074735D01*
X0049645Y0075733D02*
X0062244Y0075733D01*
X0061246Y0076732D02*
X0049645Y0076732D01*
X0049645Y0077730D02*
X0060247Y0077730D01*
X0059249Y0078729D02*
X0049645Y0078729D01*
X0049645Y0079727D02*
X0058250Y0079727D01*
X0057252Y0080726D02*
X0049645Y0080726D01*
X0049645Y0081724D02*
X0056253Y0081724D01*
X0055255Y0082723D02*
X0049645Y0082723D01*
X0049645Y0083721D02*
X0054256Y0083721D01*
X0053258Y0084720D02*
X0049645Y0084720D01*
X0049645Y0085718D02*
X0052259Y0085718D01*
X0051261Y0086717D02*
X0049645Y0086717D01*
X0049645Y0087715D02*
X0050495Y0087715D01*
X0050495Y0088714D02*
X0049645Y0088714D01*
X0049645Y0089712D02*
X0050495Y0089712D01*
X0050495Y0090711D02*
X0049645Y0090711D01*
X0049645Y0091709D02*
X0050495Y0091709D01*
X0050495Y0092708D02*
X0049645Y0092708D01*
X0049645Y0093706D02*
X0050495Y0093706D01*
X0050495Y0094705D02*
X0049645Y0094705D01*
X0049645Y0095703D02*
X0050495Y0095703D01*
X0050495Y0096702D02*
X0049645Y0096702D01*
X0049645Y0097701D02*
X0050495Y0097701D01*
X0050495Y0098699D02*
X0049645Y0098699D01*
X0049645Y0099698D02*
X0050495Y0099698D01*
X0050495Y0100696D02*
X0049645Y0100696D01*
X0049645Y0101695D02*
X0050495Y0101695D01*
X0050495Y0102693D02*
X0049645Y0102693D01*
X0049645Y0103692D02*
X0050495Y0103692D01*
X0050495Y0104690D02*
X0049645Y0104690D01*
X0049645Y0105689D02*
X0050495Y0105689D01*
X0050495Y0106687D02*
X0049645Y0106687D01*
X0049645Y0107686D02*
X0050495Y0107686D01*
X0050495Y0108684D02*
X0049645Y0108684D01*
X0049645Y0109683D02*
X0050495Y0109683D01*
X0050495Y0110681D02*
X0049645Y0110681D01*
X0049645Y0111680D02*
X0050495Y0111680D01*
X0050495Y0112678D02*
X0049645Y0112678D01*
X0049645Y0113677D02*
X0050495Y0113677D01*
X0050495Y0114675D02*
X0049645Y0114675D01*
X0049645Y0115674D02*
X0050495Y0115674D01*
X0050495Y0116672D02*
X0049645Y0116672D01*
X0049645Y0117671D02*
X0050495Y0117671D01*
X0050495Y0118669D02*
X0049645Y0118669D01*
X0049645Y0119668D02*
X0050495Y0119668D01*
X0050495Y0120666D02*
X0049645Y0120666D01*
X0049645Y0121665D02*
X0050495Y0121665D01*
X0050495Y0122663D02*
X0049645Y0122663D01*
X0049645Y0123662D02*
X0050495Y0123662D01*
X0050933Y0124660D02*
X0049645Y0124660D01*
X0049645Y0125659D02*
X0051932Y0125659D01*
X0052930Y0126657D02*
X0049645Y0126657D01*
X0049645Y0127656D02*
X0053929Y0127656D01*
X0054927Y0128654D02*
X0049645Y0128654D01*
X0049645Y0129653D02*
X0055926Y0129653D01*
X0056924Y0130651D02*
X0049645Y0130651D01*
X0049645Y0131650D02*
X0057923Y0131650D01*
X0058921Y0132648D02*
X0049645Y0132648D01*
X0049645Y0133647D02*
X0079425Y0133647D01*
X0078783Y0137641D02*
X0093914Y0137641D01*
X0094912Y0138639D02*
X0079645Y0138639D01*
X0079645Y0139638D02*
X0095911Y0139638D01*
X0096909Y0140637D02*
X0079645Y0140637D01*
X0079645Y0141635D02*
X0097908Y0141635D01*
X0098195Y0141922D02*
X0096995Y0140722D01*
X0084225Y0127952D01*
X0063927Y0127952D01*
X0063082Y0128302D01*
X0062108Y0128302D01*
X0061207Y0127929D01*
X0060518Y0127240D01*
X0060145Y0126340D01*
X0060145Y0125365D01*
X0060518Y0124465D01*
X0061207Y0123775D01*
X0062108Y0123402D01*
X0063082Y0123402D01*
X0063927Y0123752D01*
X0080795Y0123752D01*
X0080795Y0116814D01*
X0081557Y0116052D01*
X0088634Y0116052D01*
X0089395Y0116814D01*
X0089395Y0118552D01*
X0089850Y0118552D01*
X0090145Y0118257D01*
X0090145Y0117865D01*
X0090518Y0116965D01*
X0091207Y0116275D01*
X0092108Y0115902D01*
X0093082Y0115902D01*
X0093983Y0116275D01*
X0094672Y0116965D01*
X0095045Y0117865D01*
X0095045Y0118840D01*
X0094672Y0119740D01*
X0093983Y0120429D01*
X0093082Y0120802D01*
X0092691Y0120802D01*
X0092395Y0121098D01*
X0091341Y0122152D01*
X0089395Y0122152D01*
X0089395Y0123891D01*
X0088634Y0124652D01*
X0086865Y0124652D01*
X0099965Y0137752D01*
X0113784Y0137752D01*
X0116957Y0140925D01*
X0117802Y0141275D01*
X0118491Y0141965D01*
X0118864Y0142865D01*
X0118864Y0143840D01*
X0118491Y0144740D01*
X0117802Y0145429D01*
X0116901Y0145802D01*
X0115927Y0145802D01*
X0115026Y0145429D01*
X0114337Y0144740D01*
X0113987Y0143895D01*
X0112044Y0141952D01*
X0101995Y0141952D01*
X0101995Y0150065D01*
X0107832Y0155902D01*
X0108082Y0155902D01*
X0108983Y0156275D01*
X0109672Y0156965D01*
X0110045Y0157865D01*
X0110045Y0158840D01*
X0109672Y0159740D01*
X0108983Y0160429D01*
X0108082Y0160802D01*
X0107108Y0160802D01*
X0106207Y0160429D01*
X0105518Y0159740D01*
X0105145Y0158840D01*
X0105145Y0158589D01*
X0101345Y0154789D01*
X0100882Y0155252D01*
X0100382Y0155752D01*
X0098045Y0155752D01*
X0098045Y0156691D01*
X0097284Y0157452D01*
X0089907Y0157452D01*
X0089145Y0156691D01*
X0089145Y0151014D01*
X0089307Y0150852D01*
X0089145Y0150691D01*
X0089145Y0149752D01*
X0088808Y0149752D01*
X0087858Y0148802D01*
X0087608Y0148802D01*
X0086707Y0148429D01*
X0086018Y0147740D01*
X0085645Y0146840D01*
X0085645Y0145865D01*
X0086018Y0144965D01*
X0086707Y0144275D01*
X0087608Y0143902D01*
X0088582Y0143902D01*
X0089483Y0144275D01*
X0089683Y0144476D01*
X0089907Y0144252D01*
X0097284Y0144252D01*
X0098045Y0145014D01*
X0098045Y0150691D01*
X0097884Y0150852D01*
X0098045Y0151014D01*
X0098045Y0151952D01*
X0098195Y0151952D01*
X0098195Y0141922D01*
X0098195Y0142634D02*
X0079645Y0142634D01*
X0079645Y0143632D02*
X0098195Y0143632D01*
X0098195Y0144631D02*
X0097662Y0144631D01*
X0098045Y0145629D02*
X0098195Y0145629D01*
X0098195Y0146628D02*
X0098045Y0146628D01*
X0098045Y0147626D02*
X0098195Y0147626D01*
X0098195Y0148625D02*
X0098045Y0148625D01*
X0098045Y0149623D02*
X0098195Y0149623D01*
X0098195Y0150622D02*
X0098045Y0150622D01*
X0098045Y0151620D02*
X0098195Y0151620D01*
X0101995Y0149623D02*
X0149045Y0149623D01*
X0149045Y0148625D02*
X0101995Y0148625D01*
X0101995Y0147626D02*
X0149045Y0147626D01*
X0149045Y0146628D02*
X0101995Y0146628D01*
X0101995Y0145629D02*
X0115508Y0145629D01*
X0114292Y0144631D02*
X0101995Y0144631D01*
X0101995Y0143632D02*
X0113724Y0143632D01*
X0112725Y0142634D02*
X0101995Y0142634D01*
X0099854Y0137641D02*
X0127978Y0137641D01*
X0127712Y0136642D02*
X0098855Y0136642D01*
X0097857Y0135644D02*
X0127712Y0135644D01*
X0127712Y0134645D02*
X0096858Y0134645D01*
X0095860Y0133647D02*
X0127712Y0133647D01*
X0127712Y0132648D02*
X0094861Y0132648D01*
X0093863Y0131650D02*
X0097428Y0131650D01*
X0097707Y0131929D02*
X0097018Y0131240D01*
X0096645Y0130340D01*
X0096645Y0129948D01*
X0096295Y0129598D01*
X0096295Y0115098D01*
X0079850Y0098652D01*
X0071760Y0098652D01*
X0071483Y0098929D01*
X0070582Y0099302D01*
X0069608Y0099302D01*
X0068707Y0098929D01*
X0068018Y0098240D01*
X0067645Y0097340D01*
X0067645Y0096365D01*
X0068018Y0095465D01*
X0068707Y0094775D01*
X0069608Y0094402D01*
X0070582Y0094402D01*
X0071483Y0094775D01*
X0071760Y0095052D01*
X0079850Y0095052D01*
X0081341Y0095052D01*
X0099895Y0113607D01*
X0099895Y0127532D01*
X0100483Y0127775D01*
X0101172Y0128465D01*
X0101545Y0129365D01*
X0101545Y0130340D01*
X0101172Y0131240D01*
X0100483Y0131929D01*
X0099582Y0132302D01*
X0098608Y0132302D01*
X0097707Y0131929D01*
X0096774Y0130651D02*
X0092864Y0130651D01*
X0091865Y0129653D02*
X0096350Y0129653D01*
X0096295Y0128654D02*
X0090867Y0128654D01*
X0089868Y0127656D02*
X0096295Y0127656D01*
X0096295Y0126657D02*
X0088870Y0126657D01*
X0087871Y0125659D02*
X0096295Y0125659D01*
X0096295Y0124660D02*
X0086873Y0124660D01*
X0089395Y0123662D02*
X0096295Y0123662D01*
X0096295Y0122663D02*
X0089395Y0122663D01*
X0090595Y0120352D02*
X0085095Y0120352D01*
X0080795Y0120666D02*
X0054695Y0120666D01*
X0054695Y0119668D02*
X0080795Y0119668D01*
X0080795Y0118669D02*
X0054695Y0118669D01*
X0054695Y0117671D02*
X0080795Y0117671D01*
X0080937Y0116672D02*
X0070740Y0116672D01*
X0070760Y0116652D02*
X0070483Y0116929D01*
X0069582Y0117302D01*
X0068608Y0117302D01*
X0067707Y0116929D01*
X0067018Y0116240D01*
X0066645Y0115340D01*
X0066645Y0114365D01*
X0067018Y0113465D01*
X0067707Y0112775D01*
X0068608Y0112402D01*
X0069582Y0112402D01*
X0070483Y0112775D01*
X0070760Y0113052D01*
X0075350Y0113052D01*
X0080645Y0107757D01*
X0080645Y0107365D01*
X0081018Y0106465D01*
X0081707Y0105775D01*
X0082608Y0105402D01*
X0083582Y0105402D01*
X0084483Y0105775D01*
X0085172Y0106465D01*
X0085545Y0107365D01*
X0085545Y0108340D01*
X0085172Y0109240D01*
X0084483Y0109929D01*
X0083582Y0110302D01*
X0083191Y0110302D01*
X0076841Y0116652D01*
X0070760Y0116652D01*
X0069095Y0114852D02*
X0076095Y0114852D01*
X0083095Y0107852D01*
X0085402Y0108684D02*
X0089881Y0108684D01*
X0088883Y0107686D02*
X0085545Y0107686D01*
X0085264Y0106687D02*
X0087884Y0106687D01*
X0086886Y0105689D02*
X0084274Y0105689D01*
X0085887Y0104690D02*
X0063095Y0104690D01*
X0063095Y0104352D02*
X0063095Y0105352D01*
X0067095Y0105352D01*
X0067095Y0108050D01*
X0066993Y0108431D01*
X0066795Y0108773D01*
X0066516Y0109053D01*
X0066174Y0109250D01*
X0065793Y0109352D01*
X0063095Y0109352D01*
X0063095Y0105352D01*
X0062095Y0105352D01*
X0062095Y0104352D01*
X0063095Y0104352D01*
X0063095Y0100352D01*
X0065793Y0100352D01*
X0066174Y0100455D01*
X0066516Y0100652D01*
X0066795Y0100931D01*
X0066993Y0101273D01*
X0067095Y0101655D01*
X0067095Y0104352D01*
X0063095Y0104352D01*
X0063095Y0103692D02*
X0062095Y0103692D01*
X0062095Y0104352D02*
X0062095Y0100352D01*
X0060128Y0100352D01*
X0060497Y0100199D01*
X0061442Y0099255D01*
X0061953Y0098020D01*
X0061953Y0096684D01*
X0061442Y0095450D01*
X0060497Y0094505D01*
X0059263Y0093994D01*
X0057927Y0093994D01*
X0056693Y0094505D01*
X0055748Y0095450D01*
X0055237Y0096684D01*
X0055237Y0098020D01*
X0055748Y0099255D01*
X0056693Y0100199D01*
X0057927Y0100711D01*
X0058616Y0100711D01*
X0058395Y0100931D01*
X0058197Y0101273D01*
X0058095Y0101655D01*
X0058095Y0104352D01*
X0062095Y0104352D01*
X0062095Y0104690D02*
X0054695Y0104690D01*
X0054695Y0103692D02*
X0058095Y0103692D01*
X0058095Y0102693D02*
X0054695Y0102693D01*
X0054695Y0101695D02*
X0058095Y0101695D01*
X0057892Y0100696D02*
X0054695Y0100696D01*
X0054695Y0099698D02*
X0056191Y0099698D01*
X0055518Y0098699D02*
X0054695Y0098699D01*
X0054695Y0097701D02*
X0055237Y0097701D01*
X0055237Y0096702D02*
X0054695Y0096702D01*
X0054695Y0095703D02*
X0055643Y0095703D01*
X0056493Y0094705D02*
X0054695Y0094705D01*
X0054695Y0093706D02*
X0081904Y0093706D01*
X0082902Y0094705D02*
X0071313Y0094705D01*
X0071405Y0092708D02*
X0054695Y0092708D01*
X0054695Y0091709D02*
X0070407Y0091709D01*
X0069408Y0090711D02*
X0054695Y0090711D01*
X0054695Y0089712D02*
X0068410Y0089712D01*
X0067411Y0088714D02*
X0055203Y0088714D01*
X0056202Y0087715D02*
X0066413Y0087715D01*
X0065795Y0086717D02*
X0057200Y0086717D01*
X0058199Y0085718D02*
X0065509Y0085718D01*
X0065145Y0084720D02*
X0059197Y0084720D01*
X0060196Y0083721D02*
X0065205Y0083721D01*
X0065760Y0082723D02*
X0061194Y0082723D01*
X0067595Y0084352D02*
X0067595Y0086352D01*
X0072595Y0091352D01*
X0082095Y0091352D01*
X0102095Y0111352D01*
X0102095Y0123852D01*
X0108095Y0129852D01*
X0106428Y0131650D02*
X0100762Y0131650D01*
X0101416Y0130651D02*
X0105774Y0130651D01*
X0105350Y0129653D02*
X0101545Y0129653D01*
X0101251Y0128654D02*
X0104352Y0128654D01*
X0103353Y0127656D02*
X0100194Y0127656D01*
X0099895Y0126657D02*
X0102355Y0126657D01*
X0101356Y0125659D02*
X0099895Y0125659D01*
X0099895Y0124660D02*
X0100358Y0124660D01*
X0100295Y0123662D02*
X0099895Y0123662D01*
X0099895Y0122663D02*
X0100295Y0122663D01*
X0100295Y0121665D02*
X0099895Y0121665D01*
X0099895Y0120666D02*
X0100295Y0120666D01*
X0100295Y0119668D02*
X0099895Y0119668D01*
X0099895Y0118669D02*
X0100295Y0118669D01*
X0100295Y0117671D02*
X0099895Y0117671D01*
X0099895Y0116672D02*
X0100295Y0116672D01*
X0100295Y0115674D02*
X0099895Y0115674D01*
X0099895Y0114675D02*
X0100295Y0114675D01*
X0100295Y0113677D02*
X0099895Y0113677D01*
X0100295Y0112678D02*
X0098967Y0112678D01*
X0099877Y0111680D02*
X0097968Y0111680D01*
X0098878Y0110681D02*
X0096970Y0110681D01*
X0097880Y0109683D02*
X0095971Y0109683D01*
X0096881Y0108684D02*
X0094973Y0108684D01*
X0095883Y0107686D02*
X0093974Y0107686D01*
X0094884Y0106687D02*
X0092975Y0106687D01*
X0093886Y0105689D02*
X0091977Y0105689D01*
X0092887Y0104690D02*
X0090978Y0104690D01*
X0091889Y0103692D02*
X0089980Y0103692D01*
X0090890Y0102693D02*
X0088981Y0102693D01*
X0089892Y0101695D02*
X0087983Y0101695D01*
X0088893Y0100696D02*
X0086984Y0100696D01*
X0087895Y0099698D02*
X0085986Y0099698D01*
X0086896Y0098699D02*
X0084987Y0098699D01*
X0085898Y0097701D02*
X0083989Y0097701D01*
X0084899Y0096702D02*
X0082990Y0096702D01*
X0083901Y0095703D02*
X0081992Y0095703D01*
X0080595Y0096852D02*
X0070095Y0096852D01*
X0067795Y0097701D02*
X0061953Y0097701D01*
X0061953Y0096702D02*
X0067645Y0096702D01*
X0067919Y0095703D02*
X0061547Y0095703D01*
X0060697Y0094705D02*
X0068877Y0094705D01*
X0068477Y0098699D02*
X0061672Y0098699D01*
X0060999Y0099698D02*
X0080895Y0099698D01*
X0081893Y0100696D02*
X0066560Y0100696D01*
X0067095Y0101695D02*
X0082892Y0101695D01*
X0083890Y0102693D02*
X0067095Y0102693D01*
X0067095Y0103692D02*
X0084889Y0103692D01*
X0081917Y0105689D02*
X0067095Y0105689D01*
X0067095Y0106687D02*
X0080926Y0106687D01*
X0080645Y0107686D02*
X0067095Y0107686D01*
X0066847Y0108684D02*
X0079718Y0108684D01*
X0078719Y0109683D02*
X0054695Y0109683D01*
X0054695Y0110681D02*
X0077721Y0110681D01*
X0076722Y0111680D02*
X0054695Y0111680D01*
X0054695Y0112678D02*
X0067942Y0112678D01*
X0066930Y0113677D02*
X0054695Y0113677D01*
X0054695Y0114675D02*
X0066645Y0114675D01*
X0066784Y0115674D02*
X0054695Y0115674D01*
X0054695Y0116672D02*
X0067450Y0116672D01*
X0070248Y0112678D02*
X0075724Y0112678D01*
X0078818Y0114675D02*
X0095872Y0114675D01*
X0096295Y0115674D02*
X0077819Y0115674D01*
X0079816Y0113677D02*
X0094874Y0113677D01*
X0093875Y0112678D02*
X0080815Y0112678D01*
X0081813Y0111680D02*
X0092877Y0111680D01*
X0091878Y0110681D02*
X0082812Y0110681D01*
X0084730Y0109683D02*
X0090880Y0109683D01*
X0090810Y0116672D02*
X0089253Y0116672D01*
X0089395Y0117671D02*
X0090226Y0117671D01*
X0092595Y0118352D02*
X0090595Y0120352D01*
X0091828Y0121665D02*
X0096295Y0121665D01*
X0096295Y0120666D02*
X0093411Y0120666D01*
X0094702Y0119668D02*
X0096295Y0119668D01*
X0096295Y0118669D02*
X0095045Y0118669D01*
X0094965Y0117671D02*
X0096295Y0117671D01*
X0096295Y0116672D02*
X0094380Y0116672D01*
X0098095Y0114352D02*
X0098095Y0128852D01*
X0099095Y0129852D01*
X0090918Y0134645D02*
X0049645Y0134645D01*
X0049645Y0135644D02*
X0091917Y0135644D01*
X0092915Y0136642D02*
X0049645Y0136642D01*
X0058870Y0126657D02*
X0060277Y0126657D01*
X0060145Y0125659D02*
X0057871Y0125659D01*
X0056873Y0124660D02*
X0060437Y0124660D01*
X0061481Y0123662D02*
X0055874Y0123662D01*
X0054876Y0122663D02*
X0080795Y0122663D01*
X0080795Y0121665D02*
X0054695Y0121665D01*
X0059868Y0127656D02*
X0060934Y0127656D01*
X0060867Y0128654D02*
X0084927Y0128654D01*
X0085926Y0129653D02*
X0082187Y0129653D01*
X0083250Y0130651D02*
X0086924Y0130651D01*
X0087923Y0131650D02*
X0083545Y0131650D01*
X0083417Y0132648D02*
X0088921Y0132648D01*
X0089920Y0133647D02*
X0082765Y0133647D01*
X0080795Y0123662D02*
X0063709Y0123662D01*
X0062095Y0109352D02*
X0059398Y0109352D01*
X0059016Y0109250D01*
X0058674Y0109053D01*
X0058395Y0108773D01*
X0058197Y0108431D01*
X0058095Y0108050D01*
X0058095Y0105352D01*
X0062095Y0105352D01*
X0062095Y0109352D01*
X0062095Y0108684D02*
X0063095Y0108684D01*
X0063095Y0107686D02*
X0062095Y0107686D01*
X0062095Y0106687D02*
X0063095Y0106687D01*
X0063095Y0105689D02*
X0062095Y0105689D01*
X0058095Y0105689D02*
X0054695Y0105689D01*
X0054695Y0106687D02*
X0058095Y0106687D01*
X0058095Y0107686D02*
X0054695Y0107686D01*
X0054695Y0108684D02*
X0058343Y0108684D01*
X0062095Y0102693D02*
X0063095Y0102693D01*
X0063095Y0101695D02*
X0062095Y0101695D01*
X0062095Y0100696D02*
X0063095Y0100696D01*
X0071713Y0098699D02*
X0079896Y0098699D01*
X0080595Y0096852D02*
X0098095Y0114352D01*
X0107477Y0105689D02*
X0127712Y0105689D01*
X0127712Y0106687D02*
X0108475Y0106687D01*
X0109474Y0107686D02*
X0127712Y0107686D01*
X0127712Y0108684D02*
X0110472Y0108684D01*
X0111471Y0109683D02*
X0127712Y0109683D01*
X0127712Y0110681D02*
X0112395Y0110681D01*
X0112395Y0111680D02*
X0127712Y0111680D01*
X0127712Y0112678D02*
X0112395Y0112678D01*
X0112395Y0113677D02*
X0127712Y0113677D01*
X0127712Y0114675D02*
X0112395Y0114675D01*
X0112395Y0115674D02*
X0127712Y0115674D01*
X0127712Y0116672D02*
X0112395Y0116672D01*
X0112395Y0117671D02*
X0127712Y0117671D01*
X0127712Y0118669D02*
X0112395Y0118669D01*
X0112395Y0119668D02*
X0127712Y0119668D01*
X0127712Y0120666D02*
X0112395Y0120666D01*
X0112395Y0121665D02*
X0127712Y0121665D01*
X0127712Y0122663D02*
X0112395Y0122663D01*
X0112395Y0123662D02*
X0127712Y0123662D01*
X0127712Y0124660D02*
X0112333Y0124660D01*
X0111913Y0125659D02*
X0127712Y0125659D01*
X0127712Y0126657D02*
X0111255Y0126657D01*
X0110251Y0128654D02*
X0127712Y0128654D01*
X0127712Y0127656D02*
X0109194Y0127656D01*
X0110545Y0129653D02*
X0127712Y0129653D01*
X0127712Y0130651D02*
X0110416Y0130651D01*
X0109762Y0131650D02*
X0127712Y0131650D01*
X0132545Y0138639D02*
X0114671Y0138639D01*
X0115670Y0139638D02*
X0133482Y0139638D01*
X0118768Y0142634D02*
X0149045Y0142634D01*
X0149045Y0143632D02*
X0118864Y0143632D01*
X0118536Y0144631D02*
X0149045Y0144631D01*
X0149045Y0145629D02*
X0117320Y0145629D01*
X0118162Y0141635D02*
X0149045Y0141635D01*
X0149045Y0140637D02*
X0116668Y0140637D01*
X0104548Y0152619D02*
X0149045Y0152619D01*
X0149045Y0153617D02*
X0105547Y0153617D01*
X0106545Y0154616D02*
X0149045Y0154616D01*
X0149045Y0155614D02*
X0107544Y0155614D01*
X0109320Y0156613D02*
X0149045Y0156613D01*
X0149045Y0157611D02*
X0109940Y0157611D01*
X0110045Y0158610D02*
X0149045Y0158610D01*
X0149045Y0159608D02*
X0109727Y0159608D01*
X0108555Y0160607D02*
X0149045Y0160607D01*
X0149045Y0161605D02*
X0140813Y0161605D01*
X0141437Y0162604D02*
X0149045Y0162604D01*
X0149045Y0163602D02*
X0141545Y0163602D01*
X0141230Y0164601D02*
X0149045Y0164601D01*
X0149045Y0165599D02*
X0140073Y0165599D01*
X0138118Y0165599D02*
X0129394Y0165599D01*
X0128395Y0166598D02*
X0149045Y0166598D01*
X0149045Y0167596D02*
X0127397Y0167596D01*
X0126398Y0168595D02*
X0149045Y0168595D01*
X0149045Y0169593D02*
X0125400Y0169593D01*
X0124401Y0170592D02*
X0149045Y0170592D01*
X0149045Y0171590D02*
X0123403Y0171590D01*
X0122404Y0172589D02*
X0149045Y0172589D01*
X0149045Y0173587D02*
X0121406Y0173587D01*
X0120407Y0174586D02*
X0149045Y0174586D01*
X0149045Y0175584D02*
X0119409Y0175584D01*
X0118410Y0176583D02*
X0149045Y0176583D01*
X0149045Y0177581D02*
X0117412Y0177581D01*
X0116413Y0178580D02*
X0149045Y0178580D01*
X0149045Y0179578D02*
X0115415Y0179578D01*
X0114416Y0180577D02*
X0149045Y0180577D01*
X0149045Y0181575D02*
X0113418Y0181575D01*
X0112419Y0182574D02*
X0149045Y0182574D01*
X0149045Y0183572D02*
X0111421Y0183572D01*
X0110422Y0184571D02*
X0149045Y0184571D01*
X0149045Y0185570D02*
X0109424Y0185570D01*
X0108425Y0186568D02*
X0149045Y0186568D01*
X0149045Y0187567D02*
X0107427Y0187567D01*
X0106428Y0188565D02*
X0116380Y0188565D01*
X0115313Y0189564D02*
X0105430Y0189564D01*
X0104431Y0190562D02*
X0114632Y0190562D01*
X0114218Y0191561D02*
X0104472Y0191561D01*
X0104595Y0192559D02*
X0114095Y0192559D01*
X0114095Y0193558D02*
X0104595Y0193558D01*
X0104301Y0194556D02*
X0114389Y0194556D01*
X0114802Y0195555D02*
X0103888Y0195555D01*
X0099595Y0192852D02*
X0129095Y0163352D01*
X0139095Y0163352D01*
X0128297Y0161605D02*
X0079645Y0161605D01*
X0079645Y0160607D02*
X0106636Y0160607D01*
X0105463Y0159608D02*
X0079645Y0159608D01*
X0079645Y0158610D02*
X0105145Y0158610D01*
X0104167Y0157611D02*
X0079645Y0157611D01*
X0079645Y0156613D02*
X0089145Y0156613D01*
X0089145Y0155614D02*
X0079645Y0155614D01*
X0079645Y0154616D02*
X0089145Y0154616D01*
X0089145Y0153617D02*
X0079645Y0153617D01*
X0079645Y0152619D02*
X0089145Y0152619D01*
X0089145Y0151620D02*
X0079645Y0151620D01*
X0079645Y0150622D02*
X0089145Y0150622D01*
X0088679Y0149623D02*
X0079645Y0149623D01*
X0079645Y0148625D02*
X0087179Y0148625D01*
X0085971Y0147626D02*
X0079645Y0147626D01*
X0079645Y0146628D02*
X0085645Y0146628D01*
X0085743Y0145629D02*
X0079645Y0145629D01*
X0079645Y0144631D02*
X0086352Y0144631D01*
X0098045Y0156613D02*
X0103168Y0156613D01*
X0102170Y0155614D02*
X0100520Y0155614D01*
X0103550Y0151620D02*
X0149045Y0151620D01*
X0149045Y0150622D02*
X0102551Y0150622D01*
X0121307Y0168595D02*
X0079645Y0168595D01*
X0079645Y0169593D02*
X0120309Y0169593D01*
X0119310Y0170592D02*
X0079645Y0170592D01*
X0079645Y0171590D02*
X0118312Y0171590D01*
X0117313Y0172589D02*
X0079645Y0172589D01*
X0079645Y0173587D02*
X0116315Y0173587D01*
X0115316Y0174586D02*
X0079645Y0174586D01*
X0079645Y0175584D02*
X0114318Y0175584D01*
X0113319Y0176583D02*
X0079645Y0176583D01*
X0079645Y0177581D02*
X0112320Y0177581D01*
X0111322Y0178580D02*
X0079645Y0178580D01*
X0079645Y0179578D02*
X0110323Y0179578D01*
X0109325Y0180577D02*
X0079645Y0180577D01*
X0079645Y0181575D02*
X0108326Y0181575D01*
X0107328Y0182574D02*
X0079645Y0182574D01*
X0079645Y0183572D02*
X0106329Y0183572D01*
X0105331Y0184571D02*
X0079645Y0184571D01*
X0079645Y0185570D02*
X0104332Y0185570D01*
X0103334Y0186568D02*
X0079645Y0186568D01*
X0079645Y0187567D02*
X0102335Y0187567D01*
X0096880Y0188565D02*
X0079645Y0188565D01*
X0079645Y0189564D02*
X0095813Y0189564D01*
X0095132Y0190562D02*
X0079645Y0190562D01*
X0079645Y0191561D02*
X0094718Y0191561D01*
X0094595Y0192559D02*
X0079645Y0192559D01*
X0079645Y0193558D02*
X0094595Y0193558D01*
X0094889Y0194556D02*
X0079645Y0194556D01*
X0079645Y0195555D02*
X0095302Y0195555D01*
X0121810Y0188565D02*
X0136880Y0188565D01*
X0135813Y0189564D02*
X0122877Y0189564D01*
X0123558Y0190562D02*
X0135132Y0190562D01*
X0134718Y0191561D02*
X0123972Y0191561D01*
X0124095Y0192559D02*
X0134595Y0192559D01*
X0134595Y0193558D02*
X0124095Y0193558D01*
X0123801Y0194556D02*
X0134889Y0194556D01*
X0135302Y0195555D02*
X0123388Y0195555D01*
X0142310Y0188565D02*
X0149045Y0188565D01*
X0149045Y0189564D02*
X0143377Y0189564D01*
X0144058Y0190562D02*
X0149045Y0190562D01*
X0149045Y0191561D02*
X0144472Y0191561D01*
X0144595Y0192559D02*
X0149045Y0192559D01*
X0149045Y0193558D02*
X0144595Y0193558D01*
X0144301Y0194556D02*
X0149045Y0194556D01*
X0149045Y0195555D02*
X0143888Y0195555D01*
X0122306Y0167596D02*
X0079645Y0167596D01*
X0079645Y0166598D02*
X0123304Y0166598D01*
X0124303Y0165599D02*
X0079645Y0165599D01*
X0079645Y0164601D02*
X0125301Y0164601D01*
X0126300Y0163602D02*
X0079645Y0163602D01*
X0079645Y0162604D02*
X0127298Y0162604D01*
X0127712Y0104690D02*
X0106478Y0104690D01*
X0105480Y0103692D02*
X0127712Y0103692D01*
X0127712Y0102693D02*
X0104481Y0102693D01*
X0103483Y0101695D02*
X0127712Y0101695D01*
X0127712Y0100696D02*
X0102484Y0100696D01*
X0101486Y0099698D02*
X0127712Y0099698D01*
X0127712Y0098699D02*
X0100487Y0098699D01*
X0099489Y0097701D02*
X0127712Y0097701D01*
X0127712Y0096702D02*
X0098490Y0096702D01*
X0097492Y0095703D02*
X0101295Y0095703D01*
X0101295Y0095891D02*
X0101295Y0094507D01*
X0100582Y0094802D01*
X0099608Y0094802D01*
X0098707Y0094429D01*
X0098018Y0093740D01*
X0097645Y0092840D01*
X0097645Y0091865D01*
X0098018Y0090965D01*
X0098707Y0090275D01*
X0099608Y0089902D01*
X0100582Y0089902D01*
X0101295Y0090198D01*
X0101295Y0088814D01*
X0102057Y0088052D01*
X0109134Y0088052D01*
X0109895Y0088814D01*
X0109895Y0095891D01*
X0109134Y0096652D01*
X0102057Y0096652D01*
X0101295Y0095891D01*
X0101295Y0094705D02*
X0100818Y0094705D01*
X0099373Y0094705D02*
X0096493Y0094705D01*
X0095495Y0093706D02*
X0098004Y0093706D01*
X0097645Y0092708D02*
X0094496Y0092708D01*
X0094395Y0091709D02*
X0097710Y0091709D01*
X0098272Y0090711D02*
X0094395Y0090711D01*
X0094395Y0089712D02*
X0101295Y0089712D01*
X0101395Y0088714D02*
X0094395Y0088714D01*
X0094395Y0087715D02*
X0127712Y0087715D01*
X0127712Y0086717D02*
X0094395Y0086717D01*
X0094395Y0085718D02*
X0127712Y0085718D01*
X0127712Y0084720D02*
X0098282Y0084720D01*
X0096909Y0084720D02*
X0094395Y0084720D01*
X0094395Y0083721D02*
X0095510Y0083721D01*
X0095145Y0082723D02*
X0094395Y0082723D01*
X0094395Y0081724D02*
X0095203Y0081724D01*
X0095757Y0080726D02*
X0094395Y0080726D01*
X0094395Y0079727D02*
X0097675Y0079727D01*
X0099179Y0078222D02*
X0111795Y0065607D01*
X0111795Y0053642D01*
X0111518Y0053365D01*
X0111145Y0052465D01*
X0111145Y0051490D01*
X0111202Y0051352D01*
X0108395Y0051352D01*
X0108395Y0068098D01*
X0099545Y0076948D01*
X0099545Y0077340D01*
X0099179Y0078222D01*
X0099383Y0077730D02*
X0099672Y0077730D01*
X0099761Y0076732D02*
X0100670Y0076732D01*
X0100760Y0075733D02*
X0101669Y0075733D01*
X0101758Y0074735D02*
X0102667Y0074735D01*
X0102757Y0073736D02*
X0103666Y0073736D01*
X0103755Y0072738D02*
X0104664Y0072738D01*
X0104754Y0071739D02*
X0105663Y0071739D01*
X0105752Y0070741D02*
X0106661Y0070741D01*
X0106751Y0069742D02*
X0107660Y0069742D01*
X0107749Y0068744D02*
X0108658Y0068744D01*
X0108395Y0067745D02*
X0109657Y0067745D01*
X0110655Y0066747D02*
X0108395Y0066747D01*
X0108395Y0065748D02*
X0111654Y0065748D01*
X0111795Y0064750D02*
X0108395Y0064750D01*
X0108395Y0063751D02*
X0111795Y0063751D01*
X0111795Y0062753D02*
X0108395Y0062753D01*
X0108395Y0061754D02*
X0111795Y0061754D01*
X0111795Y0060756D02*
X0108395Y0060756D01*
X0108395Y0059757D02*
X0111795Y0059757D01*
X0111795Y0058759D02*
X0108395Y0058759D01*
X0108395Y0057760D02*
X0111795Y0057760D01*
X0111795Y0056762D02*
X0108395Y0056762D01*
X0108395Y0055763D02*
X0111795Y0055763D01*
X0111795Y0054765D02*
X0108395Y0054765D01*
X0108395Y0053766D02*
X0111795Y0053766D01*
X0111271Y0052768D02*
X0108395Y0052768D01*
X0108395Y0051769D02*
X0111145Y0051769D01*
X0113595Y0051977D02*
X0113595Y0066352D01*
X0097595Y0082352D01*
X0100045Y0082723D02*
X0106304Y0082723D01*
X0106145Y0081724D02*
X0100769Y0081724D01*
X0101767Y0080726D02*
X0106410Y0080726D01*
X0107323Y0079727D02*
X0102766Y0079727D01*
X0103764Y0078729D02*
X0124673Y0078729D01*
X0123675Y0079727D02*
X0109867Y0079727D01*
X0108595Y0081852D02*
X0124095Y0081852D01*
X0138595Y0067352D01*
X0143095Y0067352D01*
X0141134Y0062753D02*
X0132545Y0062753D01*
X0132545Y0063751D02*
X0139625Y0063751D01*
X0138761Y0064750D02*
X0132545Y0064750D01*
X0131988Y0065748D02*
X0137654Y0065748D01*
X0136655Y0066747D02*
X0115395Y0066747D01*
X0115395Y0065748D02*
X0124202Y0065748D01*
X0123645Y0064750D02*
X0115395Y0064750D01*
X0115395Y0063751D02*
X0120320Y0063751D01*
X0119815Y0062753D02*
X0115395Y0062753D01*
X0115395Y0061754D02*
X0119791Y0061754D01*
X0120227Y0060756D02*
X0115395Y0060756D01*
X0115395Y0057760D02*
X0123645Y0057760D01*
X0123645Y0056762D02*
X0115395Y0056762D01*
X0115395Y0055763D02*
X0123645Y0055763D01*
X0123645Y0054765D02*
X0115395Y0054765D01*
X0115395Y0053766D02*
X0123645Y0053766D01*
X0124392Y0052768D02*
X0115920Y0052768D01*
X0116045Y0051769D02*
X0131709Y0051769D01*
X0132533Y0048773D02*
X0134595Y0048773D01*
X0134595Y0047775D02*
X0132968Y0047775D01*
X0133072Y0046776D02*
X0134595Y0046776D01*
X0134595Y0045778D02*
X0133072Y0045778D01*
X0134595Y0044779D02*
X0130087Y0044779D01*
X0129119Y0044779D02*
X0126495Y0044779D01*
X0126753Y0044521D02*
X0125831Y0045444D01*
X0124625Y0045943D01*
X0123321Y0045943D01*
X0122115Y0045444D01*
X0121193Y0044521D01*
X0120694Y0043316D01*
X0120694Y0042011D01*
X0121193Y0040806D01*
X0122115Y0039883D01*
X0123321Y0039384D01*
X0124625Y0039384D01*
X0125831Y0039883D01*
X0126673Y0040726D01*
X0126909Y0040374D01*
X0127392Y0039890D01*
X0127960Y0039511D01*
X0128591Y0039249D01*
X0129119Y0039145D01*
X0129119Y0044266D01*
X0126859Y0044266D01*
X0126753Y0044521D01*
X0126135Y0045778D02*
X0125024Y0045778D01*
X0126135Y0046776D02*
X0108395Y0046776D01*
X0108395Y0045778D02*
X0122922Y0045778D01*
X0121451Y0044779D02*
X0108395Y0044779D01*
X0109238Y0043781D02*
X0120886Y0043781D01*
X0120694Y0042782D02*
X0110258Y0042782D01*
X0110545Y0041784D02*
X0120788Y0041784D01*
X0121213Y0040785D02*
X0110409Y0040785D01*
X0109744Y0039787D02*
X0122348Y0039787D01*
X0125598Y0039787D02*
X0127547Y0039787D01*
X0129119Y0039787D02*
X0130087Y0039787D01*
X0130087Y0040785D02*
X0129119Y0040785D01*
X0129119Y0041784D02*
X0130087Y0041784D01*
X0130087Y0042782D02*
X0129119Y0042782D01*
X0129119Y0043781D02*
X0130087Y0043781D01*
X0133072Y0043781D02*
X0134595Y0043781D01*
X0134595Y0042782D02*
X0133072Y0042782D01*
X0132980Y0041784D02*
X0134595Y0041784D01*
X0134595Y0040785D02*
X0132572Y0040785D01*
X0131659Y0039787D02*
X0134595Y0039787D01*
X0137095Y0039787D02*
X0138499Y0039787D01*
X0138648Y0040078D02*
X0138276Y0039348D01*
X0138023Y0038570D01*
X0137910Y0037852D01*
X0142595Y0037852D01*
X0142595Y0036852D01*
X0143595Y0036852D01*
X0143595Y0032167D01*
X0144313Y0032280D01*
X0144774Y0032430D01*
X0137095Y0024751D01*
X0137095Y0046383D01*
X0138225Y0045252D01*
X0138553Y0045252D01*
X0138856Y0044520D01*
X0140263Y0043114D01*
X0141913Y0042430D01*
X0141877Y0042424D01*
X0141099Y0042171D01*
X0140370Y0041800D01*
X0139708Y0041319D01*
X0139129Y0040740D01*
X0138648Y0040078D01*
X0139174Y0040785D02*
X0137095Y0040785D01*
X0137095Y0041784D02*
X0140348Y0041784D01*
X0141062Y0042782D02*
X0137095Y0042782D01*
X0137095Y0043781D02*
X0139596Y0043781D01*
X0138749Y0044779D02*
X0137095Y0044779D01*
X0137095Y0045778D02*
X0137700Y0045778D01*
X0138647Y0050770D02*
X0139442Y0050770D01*
X0140692Y0051769D02*
X0137648Y0051769D01*
X0136650Y0052768D02*
X0141098Y0052768D01*
X0142101Y0052352D02*
X0144090Y0052352D01*
X0142101Y0052352D01*
X0144090Y0052352D02*
X0145927Y0053114D01*
X0147334Y0054520D01*
X0148095Y0056358D01*
X0148095Y0058347D01*
X0147334Y0060185D01*
X0145927Y0061591D01*
X0144090Y0062352D01*
X0142101Y0062352D01*
X0144090Y0062352D01*
X0145927Y0063114D01*
X0147334Y0064520D01*
X0148095Y0066358D01*
X0148095Y0068347D01*
X0147334Y0070185D01*
X0145927Y0071591D01*
X0144090Y0072352D01*
X0142101Y0072352D01*
X0144090Y0072352D01*
X0145927Y0073114D01*
X0147334Y0074520D01*
X0148095Y0076358D01*
X0148095Y0078347D01*
X0147334Y0080185D01*
X0145927Y0081591D01*
X0145417Y0081802D01*
X0149045Y0081802D01*
X0149045Y0036702D01*
X0148017Y0035674D01*
X0148167Y0036135D01*
X0148281Y0036852D01*
X0143595Y0036852D01*
X0143595Y0037852D01*
X0148281Y0037852D01*
X0148167Y0038570D01*
X0147914Y0039348D01*
X0147543Y0040078D01*
X0147061Y0040740D01*
X0146483Y0041319D01*
X0145821Y0041800D01*
X0145091Y0042171D01*
X0144313Y0042424D01*
X0144277Y0042430D01*
X0145927Y0043114D01*
X0147334Y0044520D01*
X0148095Y0046358D01*
X0148095Y0048347D01*
X0147334Y0050185D01*
X0145927Y0051591D01*
X0144090Y0052352D01*
X0145092Y0052768D02*
X0149045Y0052768D01*
X0149045Y0053766D02*
X0146580Y0053766D01*
X0147435Y0054765D02*
X0149045Y0054765D01*
X0149045Y0055763D02*
X0147849Y0055763D01*
X0148095Y0056762D02*
X0149045Y0056762D01*
X0149045Y0057760D02*
X0148095Y0057760D01*
X0147925Y0058759D02*
X0149045Y0058759D01*
X0149045Y0059757D02*
X0147511Y0059757D01*
X0146763Y0060756D02*
X0149045Y0060756D01*
X0149045Y0061754D02*
X0145534Y0061754D01*
X0145056Y0062753D02*
X0149045Y0062753D01*
X0149045Y0063751D02*
X0146565Y0063751D01*
X0147429Y0064750D02*
X0149045Y0064750D01*
X0149045Y0065748D02*
X0147843Y0065748D01*
X0148095Y0066747D02*
X0149045Y0066747D01*
X0149045Y0067745D02*
X0148095Y0067745D01*
X0147931Y0068744D02*
X0149045Y0068744D01*
X0149045Y0069742D02*
X0147517Y0069742D01*
X0146778Y0070741D02*
X0149045Y0070741D01*
X0149045Y0071739D02*
X0145570Y0071739D01*
X0145020Y0072738D02*
X0149045Y0072738D01*
X0149045Y0073736D02*
X0146550Y0073736D01*
X0147423Y0074735D02*
X0149045Y0074735D01*
X0149045Y0075733D02*
X0147836Y0075733D01*
X0148095Y0076732D02*
X0149045Y0076732D01*
X0149045Y0077730D02*
X0148095Y0077730D01*
X0147937Y0078729D02*
X0149045Y0078729D01*
X0149045Y0079727D02*
X0147523Y0079727D01*
X0146793Y0080726D02*
X0149045Y0080726D01*
X0149045Y0081724D02*
X0145606Y0081724D01*
X0140584Y0081724D02*
X0126769Y0081724D01*
X0127767Y0080726D02*
X0139398Y0080726D01*
X0138667Y0079727D02*
X0128766Y0079727D01*
X0129764Y0078729D02*
X0138253Y0078729D01*
X0138095Y0077730D02*
X0130763Y0077730D01*
X0131761Y0076732D02*
X0138095Y0076732D01*
X0138354Y0075733D02*
X0132760Y0075733D01*
X0133758Y0074735D02*
X0138767Y0074735D01*
X0139640Y0073736D02*
X0134757Y0073736D01*
X0135755Y0072738D02*
X0141170Y0072738D01*
X0140620Y0071739D02*
X0136754Y0071739D01*
X0137752Y0070741D02*
X0139412Y0070741D01*
X0135657Y0067745D02*
X0114748Y0067745D01*
X0113749Y0068744D02*
X0134658Y0068744D01*
X0133660Y0069742D02*
X0112751Y0069742D01*
X0111752Y0070741D02*
X0132661Y0070741D01*
X0131663Y0071739D02*
X0110754Y0071739D01*
X0109755Y0072738D02*
X0130664Y0072738D01*
X0129666Y0073736D02*
X0108757Y0073736D01*
X0107758Y0074735D02*
X0128667Y0074735D01*
X0127669Y0075733D02*
X0106760Y0075733D01*
X0105761Y0076732D02*
X0126670Y0076732D01*
X0125672Y0077730D02*
X0104763Y0077730D01*
X0106999Y0083721D02*
X0099680Y0083721D01*
X0095507Y0078729D02*
X0094395Y0078729D01*
X0090795Y0069742D02*
X0088310Y0069742D01*
X0089670Y0068744D02*
X0090795Y0068744D01*
X0090491Y0067745D02*
X0091195Y0067745D01*
X0091001Y0066747D02*
X0091736Y0066747D01*
X0086095Y0066747D02*
X0085095Y0066747D01*
X0085095Y0067745D02*
X0086095Y0067745D01*
X0086095Y0068744D02*
X0085095Y0068744D01*
X0085095Y0069742D02*
X0086095Y0069742D01*
X0086095Y0063751D02*
X0085095Y0063751D01*
X0085095Y0062753D02*
X0086095Y0062753D01*
X0086095Y0061754D02*
X0085095Y0061754D01*
X0085095Y0060756D02*
X0086095Y0060756D01*
X0086095Y0059757D02*
X0085095Y0059757D01*
X0079888Y0053766D02*
X0104795Y0053766D01*
X0104795Y0052768D02*
X0080886Y0052768D01*
X0081885Y0051769D02*
X0104795Y0051769D01*
X0104795Y0048773D02*
X0098517Y0048773D01*
X0098953Y0047775D02*
X0104795Y0047775D01*
X0108395Y0047775D02*
X0126238Y0047775D01*
X0126673Y0048773D02*
X0108395Y0048773D01*
X0104795Y0054765D02*
X0078889Y0054765D01*
X0077891Y0055763D02*
X0104795Y0055763D01*
X0104795Y0056762D02*
X0076892Y0056762D01*
X0075893Y0057760D02*
X0104795Y0057760D01*
X0091095Y0050770D02*
X0082883Y0050770D01*
X0088831Y0049772D02*
X0091095Y0049772D01*
X0091095Y0048773D02*
X0089830Y0048773D01*
X0090544Y0047775D02*
X0091095Y0047775D01*
X0091095Y0046776D02*
X0090957Y0046776D01*
X0097643Y0039787D02*
X0099592Y0039787D01*
X0121753Y0059757D02*
X0122728Y0059757D01*
X0123629Y0060130D01*
X0123645Y0060146D01*
X0123645Y0059514D01*
X0123807Y0059352D01*
X0123645Y0059191D01*
X0123645Y0059757D02*
X0122729Y0059757D01*
X0132545Y0059757D02*
X0138679Y0059757D01*
X0138266Y0058759D02*
X0132545Y0058759D01*
X0132545Y0057760D02*
X0138095Y0057760D01*
X0138095Y0056762D02*
X0132656Y0056762D01*
X0133654Y0055763D02*
X0138341Y0055763D01*
X0138755Y0054765D02*
X0134653Y0054765D01*
X0135651Y0053766D02*
X0139610Y0053766D01*
X0145498Y0051769D02*
X0149045Y0051769D01*
X0149045Y0050770D02*
X0146748Y0050770D01*
X0147505Y0049772D02*
X0149045Y0049772D01*
X0149045Y0048773D02*
X0147918Y0048773D01*
X0148095Y0047775D02*
X0149045Y0047775D01*
X0149045Y0046776D02*
X0148095Y0046776D01*
X0147855Y0045778D02*
X0149045Y0045778D01*
X0149045Y0044779D02*
X0147441Y0044779D01*
X0146595Y0043781D02*
X0149045Y0043781D01*
X0149045Y0042782D02*
X0145128Y0042782D01*
X0145842Y0041784D02*
X0149045Y0041784D01*
X0149045Y0040785D02*
X0147016Y0040785D01*
X0147691Y0039787D02*
X0149045Y0039787D01*
X0149045Y0038788D02*
X0148096Y0038788D01*
X0149045Y0037790D02*
X0143595Y0037790D01*
X0143595Y0036791D02*
X0142595Y0036791D01*
X0142595Y0036852D02*
X0142595Y0032167D01*
X0141877Y0032280D01*
X0141099Y0032533D01*
X0140370Y0032905D01*
X0139708Y0033386D01*
X0139129Y0033965D01*
X0138648Y0034627D01*
X0138276Y0035356D01*
X0138023Y0036135D01*
X0137910Y0036852D01*
X0142595Y0036852D01*
X0142595Y0037790D02*
X0137095Y0037790D01*
X0137095Y0038788D02*
X0138094Y0038788D01*
X0137919Y0036791D02*
X0137095Y0036791D01*
X0137095Y0035793D02*
X0138134Y0035793D01*
X0138562Y0034794D02*
X0137095Y0034794D01*
X0137095Y0033796D02*
X0139298Y0033796D01*
X0140581Y0032797D02*
X0137095Y0032797D01*
X0137095Y0031799D02*
X0144142Y0031799D01*
X0143595Y0032797D02*
X0142595Y0032797D01*
X0142595Y0033796D02*
X0143595Y0033796D01*
X0143595Y0034794D02*
X0142595Y0034794D01*
X0142595Y0035793D02*
X0143595Y0035793D01*
X0148056Y0035793D02*
X0148136Y0035793D01*
X0148271Y0036791D02*
X0149045Y0036791D01*
X0143144Y0030800D02*
X0137095Y0030800D01*
X0137095Y0029802D02*
X0142145Y0029802D01*
X0141147Y0028803D02*
X0137095Y0028803D01*
X0137095Y0027805D02*
X0140148Y0027805D01*
X0139150Y0026806D02*
X0137095Y0026806D01*
X0137095Y0025808D02*
X0138151Y0025808D01*
X0137153Y0024809D02*
X0137095Y0024809D01*
X0130087Y0024809D02*
X0129119Y0024809D01*
X0129119Y0025808D02*
X0130087Y0025808D01*
X0130087Y0026806D02*
X0129119Y0026806D01*
X0129119Y0027805D02*
X0130087Y0027805D01*
X0130087Y0028803D02*
X0129119Y0028803D01*
X0129119Y0029802D02*
X0130087Y0029802D01*
X0130087Y0030800D02*
X0129119Y0030800D01*
X0129119Y0031799D02*
X0130087Y0031799D01*
X0132545Y0060756D02*
X0139427Y0060756D01*
X0140656Y0061754D02*
X0132545Y0061754D01*
X0132826Y0082723D02*
X0125770Y0082723D01*
X0128321Y0083721D02*
X0110191Y0083721D01*
X0109795Y0088714D02*
X0127712Y0088714D01*
X0127712Y0089712D02*
X0109895Y0089712D01*
X0109895Y0090711D02*
X0127712Y0090711D01*
X0127712Y0091709D02*
X0109895Y0091709D01*
X0109895Y0092708D02*
X0127712Y0092708D01*
X0127712Y0093706D02*
X0109895Y0093706D01*
X0109895Y0094705D02*
X0127712Y0094705D01*
X0127712Y0095703D02*
X0109895Y0095703D01*
X0068995Y0063751D02*
X0063995Y0063751D01*
X0063995Y0062753D02*
X0068995Y0062753D01*
X0068995Y0061754D02*
X0063995Y0061754D01*
X0063995Y0060756D02*
X0068995Y0060756D01*
X0068995Y0059757D02*
X0063995Y0059757D01*
X0063188Y0058759D02*
X0068995Y0058759D01*
X0069954Y0057760D02*
X0062190Y0057760D01*
X0061191Y0056762D02*
X0070952Y0056762D01*
X0071951Y0055763D02*
X0060193Y0055763D01*
X0059194Y0054765D02*
X0072949Y0054765D01*
X0073948Y0053766D02*
X0058196Y0053766D01*
X0057197Y0052768D02*
X0074946Y0052768D01*
X0059811Y0060756D02*
X0059293Y0060756D01*
X0059545Y0061754D02*
X0060195Y0061754D01*
X0060195Y0062753D02*
X0059374Y0062753D01*
X0058661Y0063751D02*
X0060195Y0063751D01*
X0060195Y0064750D02*
X0049645Y0064750D01*
X0049645Y0065748D02*
X0060195Y0065748D01*
X0060195Y0066747D02*
X0049645Y0066747D01*
X0049645Y0067745D02*
X0060195Y0067745D01*
X0060195Y0068744D02*
X0049645Y0068744D01*
X0049645Y0069742D02*
X0060195Y0069742D01*
X0059697Y0070741D02*
X0049645Y0070741D01*
X0049645Y0071739D02*
X0059645Y0071739D01*
X0060017Y0072738D02*
X0049645Y0072738D01*
X0049645Y0073736D02*
X0061448Y0073736D01*
X0055529Y0063751D02*
X0049645Y0063751D01*
X0049645Y0062753D02*
X0054816Y0062753D01*
X0054310Y0061754D02*
X0049645Y0061754D01*
X0054691Y0056762D02*
X0055817Y0056762D01*
X0055690Y0057760D02*
X0056816Y0057760D01*
X0056688Y0058759D02*
X0057814Y0058759D01*
X0058439Y0059757D02*
X0058813Y0059757D01*
X0050488Y0041784D02*
X0049645Y0041784D01*
D22*
X0064595Y0061602D03*
X0080095Y0034852D03*
X0110595Y0060852D03*
X0119095Y0060977D03*
X0125595Y0051852D03*
X0138095Y0062352D03*
X0129595Y0081352D03*
X0111595Y0078852D03*
X0100095Y0064352D03*
D23*
X0093595Y0068352D03*
X0097095Y0076852D03*
X0097595Y0082352D03*
X0089595Y0081852D03*
X0096095Y0091852D03*
X0100095Y0092352D03*
X0091595Y0096852D03*
X0081595Y0101852D03*
X0083095Y0107852D03*
X0072095Y0110352D03*
X0069095Y0114852D03*
X0062595Y0125852D03*
X0057595Y0135852D03*
X0081095Y0131852D03*
X0093595Y0129352D03*
X0099095Y0129852D03*
X0108095Y0129852D03*
X0109595Y0124852D03*
X0092595Y0118352D03*
X0070095Y0096852D03*
X0078595Y0088352D03*
X0071595Y0085352D03*
X0067595Y0084352D03*
X0062595Y0086352D03*
X0062095Y0071352D03*
X0051595Y0064852D03*
X0057095Y0061852D03*
X0072220Y0050602D03*
X0051595Y0043977D03*
X0085595Y0020852D03*
X0101095Y0036352D03*
X0105595Y0028852D03*
X0115095Y0035852D03*
X0108095Y0041602D03*
X0113595Y0051977D03*
X0122241Y0062207D03*
X0108595Y0081852D03*
X0116595Y0092352D03*
X0098595Y0052352D03*
X0121595Y0029852D03*
X0127595Y0037352D03*
X0140095Y0140852D03*
X0126595Y0156352D03*
X0139095Y0163352D03*
X0131595Y0172352D03*
X0121595Y0175852D03*
X0132595Y0188352D03*
X0147095Y0190352D03*
X0109095Y0189352D03*
X0102095Y0168352D03*
X0107595Y0158352D03*
X0103595Y0149352D03*
X0116414Y0143352D03*
X0088095Y0146352D03*
X0087595Y0159352D03*
X0086595Y0176852D03*
X0087095Y0191852D03*
D24*
X0116414Y0143352D02*
X0112914Y0139852D01*
X0099095Y0139852D01*
X0085095Y0125852D01*
X0062595Y0125852D01*
X0060095Y0130852D02*
X0052595Y0123352D01*
X0052595Y0088352D01*
X0071095Y0069852D01*
X0071095Y0059589D01*
X0075095Y0055589D01*
X0077463Y0053220D01*
X0085595Y0045089D01*
X0085859Y0045089D01*
X0085595Y0045089D02*
X0085595Y0032352D01*
X0122095Y0062352D02*
X0122241Y0062207D01*
X0122095Y0062352D02*
X0128095Y0062352D01*
X0128095Y0056352D02*
X0130595Y0055852D01*
X0139095Y0047352D01*
X0143095Y0047352D01*
X0050445Y0058352D02*
X0050345Y0058452D01*
X0060095Y0130852D02*
X0080095Y0130852D01*
X0081095Y0131852D01*
D25*
X0088095Y0146352D02*
X0089595Y0147852D01*
X0093595Y0147852D01*
X0093595Y0153852D02*
X0099595Y0153852D01*
X0100095Y0153352D01*
X0100095Y0150852D01*
X0107595Y0158352D01*
X0100095Y0150852D02*
X0100095Y0140852D01*
X0099095Y0139852D01*
X0100095Y0092352D02*
X0105595Y0092352D01*
X0062095Y0071352D02*
X0062095Y0060352D01*
X0056095Y0054352D01*
X0050345Y0054352D01*
X0050345Y0050252D02*
X0050345Y0045227D01*
X0051595Y0043977D01*
X0050345Y0058452D02*
X0053695Y0058452D01*
X0057095Y0061852D01*
M02*
