
(module TO92260P520H877-3 (layer F.Cu) (tedit 61AA1E10)
  (descr "")
  (fp_text reference REF** (at 0.237 -3.885 0) (layer F.SilkS)
    (effects (font (size 1.0 1.0) (thickness 0.15)))
  )
  (fp_text value TO92260P520H877-3 (at 7.7125 4.0175 0) (layer F.Fab)
    (effects (font (size 1.0 1.0) (thickness 0.15)))
  )
  (pad 1 thru_hole rect (at -2.6 0.9875) (size 1.448 1.448) (drill 0.94) (layers *.Cu *.Mask))
  (pad 2 thru_hole circle (at 0.0 0.9875) (size 1.448 1.448) (drill 0.94) (layers *.Cu *.Mask))
  (pad 3 thru_hole circle (at 2.6 0.9875) (size 1.448 1.448) (drill 0.94) (layers *.Cu *.Mask))
  (fp_circle (center -4.1 1.0) (end -4.0 1.0) (layer F.SilkS) (width 0.2))
  (fp_circle (center -4.1 1.0) (end -4.0 1.0) (layer F.Fab) (width 0.2))
  (fp_line (start -1.886 2.548) (end 1.886 2.548) (layer F.Fab) (width 0.127))
  (fp_arc (start 0.0 0.758252827176) (end 1.886 2.548) (angle -267.0) (layer F.Fab) (width 0.127))
  (fp_arc (start 0.000513792353902 0.760869440513) (end 2.401 -0.239) (angle -137.0) (layer F.SilkS) (width 0.127))
  (fp_arc (start 0.567912029635 0.306310794714) (end -1.885 2.548) (angle 10.0) (layer F.SilkS) (width 0.127))
  (fp_arc (start -0.650137421906 0.270235663957) (end 1.886 2.548) (angle -10.0) (layer F.SilkS) (width 0.127))
  (fp_line (start -1.886 2.548) (end 1.886 2.548) (layer F.SilkS) (width 0.127))
  (fp_line (start -3.575 2.8) (end 3.575 2.8) (layer F.CrtYd) (width 0.05))
  (fp_line (start -3.575 2.8) (end -3.575 0.758) (layer F.CrtYd) (width 0.05))
  (fp_line (start 3.575 2.8) (end 3.575 0.758) (layer F.CrtYd) (width 0.05))
  (fp_arc (start 0.0 0.758) (end 3.575 0.758) (angle -180.0) (layer F.CrtYd) (width 0.05))
)