(footprint "LSP10" (version 20221018) (generator pcbnew)
  (layer "F.Cu")
  (descr "<b>SOLDER PAD</b><p>\ndrill 1.0 mm")
  (fp_text reference "REF**" (at -1.27 -1.27) (layer "F.SilkS")
      (effects (font (size 1.143 1.143) (thickness 0.127)) (justify left bottom))
    (tstamp 3162bf62-7866-438f-95d2-2fcbcb486017)
  )
  (fp_text value "LSP10" (at 0 -0.254) (layer "F.Fab")
      (effects (font (size 0.023368 0.023368) (thickness 0.002032)) (justify left bottom))
    (tstamp f320a6cc-dea4-498a-be17-54eaae54a1cd)
  )
  (fp_line (start -1.27 -0.254) (end -1.27 0.254)
    (stroke (width 0.1524) (type solid)) (layer "F.SilkS") (tstamp c3f3412f-b6cb-4793-9ee1-6fe4344aa993))
  (fp_line (start -1.27 -0.254) (end -1.143 -0.254)
    (stroke (width 0.1524) (type solid)) (layer "F.SilkS") (tstamp 7c144140-7af9-4174-8924-b7d1b7f9e973))
  (fp_line (start -1.27 0.254) (end -1.143 0.254)
    (stroke (width 0.1524) (type solid)) (layer "F.SilkS") (tstamp 8120b4f9-3d1d-4592-af96-14ac54054c62))
  (fp_line (start 1.27 -0.254) (end 1.143 -0.254)
    (stroke (width 0.1524) (type solid)) (layer "F.SilkS") (tstamp ef19910e-eb12-4484-a887-c854042172e3))
  (fp_line (start 1.27 -0.254) (end 1.27 0.254)
    (stroke (width 0.1524) (type solid)) (layer "F.SilkS") (tstamp 18790625-044c-4a74-ad08-8d32cd3740bb))
  (fp_line (start 1.27 0.254) (end 1.143 0.254)
    (stroke (width 0.1524) (type solid)) (layer "F.SilkS") (tstamp 9f6a2280-6b85-420e-9bf8-d5e2130d7658))
  (fp_line (start -1.143 0.254) (end -0.635 0.254)
    (stroke (width 0.1524) (type solid)) (layer "F.Fab") (tstamp 08b3cc46-1045-485a-aac5-73328497da90))
  (fp_line (start -0.635 -0.254) (end -1.143 -0.254)
    (stroke (width 0.1524) (type solid)) (layer "F.Fab") (tstamp 05d80de3-7993-48be-aa13-0b55aa403317))
  (fp_line (start -0.635 -0.254) (end -0.635 0.254)
    (stroke (width 0.1524) (type solid)) (layer "F.Fab") (tstamp 76acf888-88cb-4141-bc70-0bb1daebeb17))
  (fp_line (start -0.635 0.254) (end 0.635 0.254)
    (stroke (width 0.1524) (type solid)) (layer "F.Fab") (tstamp ba2d03e7-a218-4c83-8ddf-9e6b3a8296db))
  (fp_line (start 0.635 -0.254) (end -0.635 -0.254)
    (stroke (width 0.1524) (type solid)) (layer "F.Fab") (tstamp 60588f71-7e0f-4eac-9c74-c9cfddbd72fc))
  (fp_line (start 0.635 -0.254) (end 0.635 0.254)
    (stroke (width 0.1524) (type solid)) (layer "F.Fab") (tstamp b834698a-468d-4512-b06e-1c85d86725ba))
  (fp_line (start 0.635 0.254) (end 1.143 0.254)
    (stroke (width 0.1524) (type solid)) (layer "F.Fab") (tstamp d85c1709-6e32-4688-90d8-effffaa29c0b))
  (fp_line (start 1.143 -0.254) (end 0.635 -0.254)
    (stroke (width 0.1524) (type solid)) (layer "F.Fab") (tstamp 46c8d908-999b-472a-b8e9-ae35e3ae8b4b))
  (pad "MP" thru_hole roundrect (at 0 0) (size 2.159 2.159) (drill 1.016) (layers "*.Cu" "*.Mask") (roundrect_rratio 0.25)
    (chamfer_ratio 0.2928932188) (chamfer top_left top_right bottom_left bottom_right)
    (solder_mask_margin 0.1016) (thermal_bridge_angle 45) (tstamp ca9fcf29-c61a-4dc5-9d09-4912a1e16e51))
)
