(footprint "153CLV-0405" (version 20221018) (generator pcbnew)
  (layer "F.Cu")
  (descr "<b>Aluminum electrolytic capacitors</b><p>\nSMD (Chip) Long Life Vertical 153 CLV<p>\nhttp://www.bccomponents.com/")
  (fp_text reference "REF**" (at -2.24 -2.48) (layer "F.SilkS")
      (effects (font (size 1.1684 1.1684) (thickness 0.1016)) (justify left bottom))
    (tstamp 35c45293-653c-4516-89b5-f171fb8984fa)
  )
  (fp_text value "153CLV-0405" (at -2.275 3.735) (layer "F.Fab")
      (effects (font (size 1.1684 1.1684) (thickness 0.1016)) (justify left bottom))
    (tstamp a687ab1b-60fc-47fd-84d8-56fcbd61fa14)
  )
  (fp_line (start -2.15 -2.15) (end 1.25 -2.15)
    (stroke (width 0.2032) (type solid)) (layer "F.SilkS") (tstamp ea8f68c1-ce05-4a91-ae67-0f809a538fde))
  (fp_line (start -2.15 -1.1) (end -2.15 -2.15)
    (stroke (width 0.2032) (type solid)) (layer "F.SilkS") (tstamp 2c53d6f5-32ec-4e4d-827d-c844a2b9d624))
  (fp_line (start -2.15 2.15) (end -2.15 1.1)
    (stroke (width 0.2032) (type solid)) (layer "F.SilkS") (tstamp 2bbf954f-dadd-410c-aa40-12700d3ae283))
  (fp_line (start 1.25 -2.15) (end 2.15 -1.25)
    (stroke (width 0.2032) (type solid)) (layer "F.SilkS") (tstamp 02d927f7-db8f-4102-87e9-ff995e1b8069))
  (fp_line (start 1.25 2.15) (end -2.15 2.15)
    (stroke (width 0.2032) (type solid)) (layer "F.SilkS") (tstamp a0cb0faa-fe67-457a-89cc-e75c28e1720c))
  (fp_line (start 2.15 -1.25) (end 2.15 -1.1)
    (stroke (width 0.2032) (type solid)) (layer "F.SilkS") (tstamp 108ddabe-3548-44a5-9d8a-7631760dbc4f))
  (fp_line (start 2.15 1.05) (end 2.15 1.25)
    (stroke (width 0.2032) (type solid)) (layer "F.SilkS") (tstamp eef0168d-89bf-43ad-bc47-57f8aaf4d091))
  (fp_line (start 2.15 1.25) (end 1.25 2.15)
    (stroke (width 0.2032) (type solid)) (layer "F.SilkS") (tstamp 1d7cd235-0952-4346-ad74-90aef70049bd))
  (fp_arc (start -1.65 -0.95) (mid 0 -1.903943) (end 1.65 -0.95)
    (stroke (width 0.2032) (type solid)) (layer "F.SilkS") (tstamp d819a7a2-91aa-4332-9765-f2872cfdccb9))
  (fp_arc (start 1.65 0.95) (mid 0 1.903943) (end -1.65 0.95)
    (stroke (width 0.2032) (type solid)) (layer "F.SilkS") (tstamp 31ef0b88-c35e-4c86-a927-a611d3b0f176))
  (fp_line (start -2.15 1.1) (end -2.15 -1.1)
    (stroke (width 0.2032) (type solid)) (layer "F.Fab") (tstamp 2626b325-8b23-4de3-9c19-0d0ce51b9e46))
  (fp_line (start 2.15 -1.1) (end 2.15 1.05)
    (stroke (width 0.2032) (type solid)) (layer "F.Fab") (tstamp 0fdcd337-ffa5-48cf-9939-755fd03c6191))
  (fp_arc (start -1.65 0.95) (mid -1.903943 0) (end -1.65 -0.95)
    (stroke (width 0.2032) (type solid)) (layer "F.Fab") (tstamp 027c27eb-6449-4457-8285-f37b358710f3))
  (fp_arc (start 1.65 -0.95) (mid 1.903943 0) (end 1.65 0.95)
    (stroke (width 0.2032) (type solid)) (layer "F.Fab") (tstamp 552e419d-0c4c-4b61-bec7-9117a08dbe78))
  (pad "+" smd rect (at 1.8 0) (size 2.6 1.6) (layers "F.Cu" "F.Paste" "F.Mask")
    (solder_mask_margin 0.1016) (thermal_bridge_angle 45) (tstamp d6c08763-4aa9-441a-8109-ca56f477c50e))
  (pad "-" smd rect (at -1.8 0) (size 2.6 1.6) (layers "F.Cu" "F.Paste" "F.Mask")
    (solder_mask_margin 0.1016) (thermal_bridge_angle 45) (tstamp d1cc6981-282d-46f6-b2c6-0e5340ff47f8))
)
