(footprint "SOT223" (version 20221018) (generator pcbnew)
  (layer "F.Cu")
  (descr "<b>Small Outline Transistor</b>")
  (fp_text reference "REF**" (at -2.54 -0.0508) (layer "F.SilkS")
      (effects (font (size 1.1684 1.1684) (thickness 0.1016)) (justify left bottom))
    (tstamp 1bec216f-8c62-497a-8177-c931c833ff12)
  )
  (fp_text value "SOT223" (at -2.54 1.3208) (layer "F.Fab")
      (effects (font (size 1.1684 1.1684) (thickness 0.1016)) (justify left bottom))
    (tstamp 6dabed11-0e21-44ad-943a-c30f9220dc25)
  )
  (fp_text user "4" (at 1.905 -2.54) (layer "F.SilkS")
      (effects (font (size 0.715264 0.715264) (thickness 0.097536)) (justify left bottom))
    (tstamp 0a46e113-9e18-42e7-89e4-872d7ab42934)
  )
  (fp_text user "2" (at -1.2906 4.3274) (layer "F.SilkS")
      (effects (font (size 0.715264 0.715264) (thickness 0.097536)) (justify left bottom))
    (tstamp 6b314fca-9a16-400f-ba9a-a57efcb8fe89)
  )
  (fp_text user "3" (at 1.0208 4.318) (layer "F.SilkS")
      (effects (font (size 0.715264 0.715264) (thickness 0.097536)) (justify left bottom))
    (tstamp 7099454e-1443-4be8-85b9-1662ed323e0c)
  )
  (fp_text user "1" (at -3.4526 4.318) (layer "F.SilkS")
      (effects (font (size 0.715264 0.715264) (thickness 0.097536)) (justify left bottom))
    (tstamp f83f49b9-88da-4363-ac22-e001eec30f16)
  )
  (fp_line (start -3.2766 -1.778) (end 3.2766 -1.778)
    (stroke (width 0.2032) (type solid)) (layer "F.SilkS") (tstamp bfd66071-a799-44c6-97c1-b5202c7348c2))
  (fp_line (start -3.2766 1.778) (end -3.2766 -1.778)
    (stroke (width 0.2032) (type solid)) (layer "F.SilkS") (tstamp 3f96905c-1efd-4688-b7f9-7a81c70ff719))
  (fp_line (start 3.2766 -1.778) (end 3.2766 1.778)
    (stroke (width 0.2032) (type solid)) (layer "F.SilkS") (tstamp d3a2de67-5e31-49ee-a69b-14aacd84c40d))
  (fp_line (start 3.2766 1.778) (end -3.2766 1.778)
    (stroke (width 0.2032) (type solid)) (layer "F.SilkS") (tstamp 787c3098-2200-4587-8d7d-08e40d8edd7b))
  (fp_poly
    (pts
      (xy -2.7432 3.6576)
      (xy -1.8796 3.6576)
      (xy -1.8796 1.8034)
      (xy -2.7432 1.8034)
    )

    (stroke (width 0) (type default)) (fill solid) (layer "F.Fab") (tstamp 7ef95ced-b75b-4def-8ed7-f1d49068edb6))
  (fp_poly
    (pts
      (xy -2.7432 3.6576)
      (xy -1.8796 3.6576)
      (xy -1.8796 1.8034)
      (xy -2.7432 1.8034)
    )

    (stroke (width 0) (type default)) (fill solid) (layer "F.Fab") (tstamp e70b63a7-c197-4b37-aa42-128cdcbf3431))
  (fp_poly
    (pts
      (xy -1.6002 -1.8034)
      (xy 1.6002 -1.8034)
      (xy 1.6002 -3.6576)
      (xy -1.6002 -3.6576)
    )

    (stroke (width 0) (type default)) (fill solid) (layer "F.Fab") (tstamp 0fe5b883-0774-4681-bdf0-40e94541d794))
  (fp_poly
    (pts
      (xy -1.6002 -1.8034)
      (xy 1.6002 -1.8034)
      (xy 1.6002 -3.6576)
      (xy -1.6002 -3.6576)
    )

    (stroke (width 0) (type default)) (fill solid) (layer "F.Fab") (tstamp 3048f825-7c8d-4317-b30a-e186a0de4fe5))
  (fp_poly
    (pts
      (xy -0.4318 3.6576)
      (xy 0.4318 3.6576)
      (xy 0.4318 1.8034)
      (xy -0.4318 1.8034)
    )

    (stroke (width 0) (type default)) (fill solid) (layer "F.Fab") (tstamp 3d7beb68-8d4a-456f-8a94-6e63b16cab29))
  (fp_poly
    (pts
      (xy -0.4318 3.6576)
      (xy 0.4318 3.6576)
      (xy 0.4318 1.8034)
      (xy -0.4318 1.8034)
    )

    (stroke (width 0) (type default)) (fill solid) (layer "F.Fab") (tstamp b55e945f-2f8e-4c30-9b5c-a78ffa5b66b0))
  (fp_poly
    (pts
      (xy 1.8796 3.6576)
      (xy 2.7432 3.6576)
      (xy 2.7432 1.8034)
      (xy 1.8796 1.8034)
    )

    (stroke (width 0) (type default)) (fill solid) (layer "F.Fab") (tstamp 1ce76aa5-c707-44e0-9b06-cf8f222737e0))
  (fp_poly
    (pts
      (xy 1.8796 3.6576)
      (xy 2.7432 3.6576)
      (xy 2.7432 1.8034)
      (xy 1.8796 1.8034)
    )

    (stroke (width 0) (type default)) (fill solid) (layer "F.Fab") (tstamp 9713959b-0146-4848-936f-f7e9cf5593ff))
  (pad "1" smd rect (at -2.3114 3.0988) (size 1.2192 2.2352) (layers "F.Cu" "F.Paste" "F.Mask")
    (solder_mask_margin 0.1016) (thermal_bridge_angle 45) (tstamp e37d7224-c765-4641-97d1-8bbbf8ca8cd2))
  (pad "2" smd rect (at 0 3.0988) (size 1.2192 2.2352) (layers "F.Cu" "F.Paste" "F.Mask")
    (solder_mask_margin 0.1016) (thermal_bridge_angle 45) (tstamp 3b739e30-7901-4b44-992c-6667a6ba342a))
  (pad "3" smd rect (at 2.3114 3.0988) (size 1.2192 2.2352) (layers "F.Cu" "F.Paste" "F.Mask")
    (solder_mask_margin 0.1016) (thermal_bridge_angle 45) (tstamp bd1aca6e-ab2f-42e5-9232-c5967a7f81f4))
  (pad "4" smd rect (at 0 -3.099) (size 3.6 2.2) (layers "F.Cu" "F.Paste" "F.Mask")
    (solder_mask_margin 0.1016) (thermal_bridge_angle 45) (tstamp 3d4459cd-db8a-4070-b21e-4b2eaeac9639))
)
